"VSTRANA,N,3,0","NAZEVCELK,C,120","NAZEV_STRV,C,50","ZKRATKAV30,C,30","ZKRATKAV8,C,8","POCSTR_SLO,N,2,0","SLOZENI,C,60","ZKRATKA_OF,C,50"
1,Křesťanská a demokratická unie - Československá strana lidová,Křesťan.a demokrat.unie-Českosl.strana lidová,Křesť.demokr.unie-Čs.str.lid.,KDU-ČSL,1,001,KDU-ČSL
2,Česká strana národně sociální,Česká strana národně sociální,Česká strana národně sociální,ČSNS,1,002,ČSNS
5,Strana zelených,Strana zelených,Strana zelených,SZ,1,005,SZ
7,Česká strana sociálně demokratická,Česká strana sociálně demokratická,Česká str.sociálně demokrat.,ČSSD,1,007,ČSSD
9,Nezávislá iniciativa (NEI),Nezávislá iniciativa (NEI),Nezávislá iniciativa (NEI),NEI,1,009,NEI
11,Sdružení pro republiku-Republikánská strana Československa,Sdružení pro republiku-Republikán.strana Českosl.,Sdruž.pro rep.-Republ.str.Čsl.,SPR-RSČ,1,011,SPR-RSČ
12,Romská občanská iniciativa ČR,Romská občanská iniciativa ČR,Romská občanská iniciativa ČR,ROI ČR,1,012,ROI ČR
13,Občanská demokratická aliance,Občanská demokratická aliance,Občanská demokratická aliance,ODA,1,013,
14,Republikánská unie,Republikánská unie,Republikánská unie,RU,1,014,
20,Strana za životní jistoty,Strana za životní jistoty,Strana za životní jistoty,SŽJ,1,020,
21,Republikánská strana zemědělského a malorolnického lidu,Republikán.str.zemědělského a malorolnického lidu,Rep.str.zeměd.a maloroln.lidu,RSZML,1,021,RSZML
22,Agrární strana,Agrární strana,Agrární strana,AS,1,022,
24,Konzervativní strana,Konzervativní strana,Konzervativní strana,KONS,1,024,KONS
25,Celostátní aktiv občanů,Celostátní aktiv občanů,Celostátní aktiv občanů,CAO,1,025,
28,Demokratická strana Československa,Demokratická strana Československa,Demokratická strana Českoslov.,DSČ,1,028,
29,Strana svobodných demokratů,Strana svobodných demokratů,Strana svobodných demokratů,SSD,1,029,SSD
32,Českomoravská unie středu,Českomoravská unie středu,Českomoravská unie středu,ČMUS,1,032,
34,Strana moravského venkova,Strana moravského venkova,Strana moravského venkova,SMV,1,034,
39,Levá alternativa - hnutí za demokratický a samosprávný socialismus,Levá alternativa-hnutí za demokrat.a samospr.soc.,Levá alternativa,LA,1,039,
40,Klub angažovaných nestraníků,Klub angažovaných nestraníků,Klub angažovaných nestraníků,KAN,1,040,KAN
41,Asociace Radikálů za Spojené státy evropské,Asociace Radikálů za Spojené státy evropské,Asociace Radik.za Sp.st.evrop.,AR,1,041,
42,Panevropská unie Čech a Moravy,Panevropská unie Čech a Moravy,Panevropská unie Čech a Moravy,PEUČM,1,042,
43,Pravá alternativa,Pravá alternativa,Pravá alternativa,PA,1,043,
44,Národně sociální strana - Československá strana národně socialistická,Národně sociální str.-Českosl.strana nár.social.,Národ.soc.str.-Čs.str.nár.soc.,NSS-ČSNS,1,044,
45,Strana drobných podnikatelů,Strana drobných podnikatelů,Strana drobných podnikatelů,SDP,1,045,
46,Moravská národní strana,Moravská národní strana,Moravská národní strana,MNS,1,046,
47,Komunistická strana Čech a Moravy,Komunistická strana Čech a Moravy,Komunistická str.Čech a Moravy,KSČM,1,047,KSČM
48,Hnutí 90,Hnutí 90,Hnutí 90,H 90,1,048,
49,Hnutí angažovaných Romů,Hnutí angažovaných Romů,Hnutí angažovaných Romů,HAR,1,049,
51,Národně demokratická strana,Národně demokratická strana,Národně demokratická strana,NDS,1,051,NDS
53,Občanská demokratická strana,Občanská demokratická strana,Občanská demokratická strana,ODS,1,053,ODS
55,"Koruna Česká (monarchistická strana Čech, Moravy a Slezska)","Koruna Česká (monarch.str.Čech, Moravy a Slezska)",Koruna Česká (monarch.strana),KČ,1,055,KČ
58,Česká národní strana,Česká národní strana,Česká národní strana,ČNS,1,058,
59,"Strana zdravotně postižených, důchodců a sociálně slabých občanů","Str.zdrav.postiž.,důchodců a sociálně slab.občanů","Str.zdrav.postiž.,důch.,slab.",SZP-DO,1,059,
60,Hnutí za sociální spravedlnost,Hnutí za sociální spravedlnost,Hnutí za sociální spravedlnost,HSS,1,060,
63,Republikáni,Republikáni,Republikáni,REP,1,063,
64,"Strana podnikatelů, živnostníků a rolníků České republiky","Strana podnikatelů, živnostníků a rolníků ČR","Str.podnikat.,živnost.,rolníků",SPŽR,1,064,
65,Demokraté 92,Demokraté 92,Demokraté 92,D 92,1,065,
67,Romský národní kongres,Romský národní kongres,Romský národní kongres,RNK,1,067,
68,Masarykova demokratická strana,Masarykova demokratická strana,Masarykova demokratická strana,MDS,1,068,MDS
72,COEXISTENTIA,COEXISTENTIA,COEXISTENTIA,COEX,1,072,COEX
74,Strana demokratického socialismu,Strana demokratického socialismu,Strana demokrat.socialismu,SDS,1,074,SDS
76,Československá strana socialistická,Československá strana socialistická,Českosl.strana socialistická,ČSS,1,076,ČSS
77,Česká pravice,Česká pravice,Česká pravice,ČP,1,077,ČP
78,Východoevropské národnostní politické hnutí v ČR,Východoevropské národnostní politické hnutí v ČR,Východoevr.národnost.pol.hnutí,VENPH,1,078,
79,Právo a Spravedlnost,Právo a Spravedlnost,Právo a Spravedlnost,PaS,1,079,PaS
80,Nezávislí kandidáti,Nezávislí kandidáti,Nezávislí kandidáti,NK,1,080,nezávislí kandidáti
81,Demokratická unie,Demokratická unie,Demokratická unie,DEU,1,081,
82,Moravská demokratická strana,Moravská demokratická strana,Moravská demokratická strana,MoDS,1,082,
83,Moravané,Moravané,Moravané,M,1,083,M
84,Hnutí za samosprávnou demokracii - Společnost pro Moravu a Slezsko,Hnutí za samospr.dem.-Společn.pro Moravu a Slezsko,Hn.za samospr.dem.-Sp.Mor.a Sl,HSD-SMS,1,084,
85,Pražané Praze,Pražané Praze,Pražané Praze,PP,1,085,
86,Iniciativa občanů,Iniciativa občanů,Iniciativa občanů,IO,1,086,IO
88,NEZÁVISLÍ,NEZÁVISLÍ,NEZÁVISLÍ,NEZ,1,088,NEZ
90,Sdružení nezávislých kandidátů - místní sdružení celkem,Sdruž.nezávislých kandidátů-místní sdružení celkem,Sdruž.nezáv.kand.-míst.celkem,SNK-CELK,1,080,SNK-CELK
91,Sdružení nezávislých kandidátů města České Budějovice,Sdružení nezávislých kandidátů města Č.Budějovice,Sdruž.nezáv.kand.města Č.Buděj,SNK ČB,1,091,
92,Živnostenská strana,Živnostenská strana,Živnostenská strana,ŽS,1,092,
93,Komunistická strana Československa,Komunistická strana Československa,Komunistická str.Českosloven.,KSČ,1,093,KSČ
94,Česká volba,Česká volba,Česká volba,ČV,1,094,
95,Mladí demokraté,Mladí demokraté,Mladí demokraté,MD,1,095,
96,Hnutí proti kriminalitě,Hnutí proti kriminalitě,Hnutí proti kriminalitě,HPK,1,096,
98,"Volte Pravý Blok-stranu za ODVOLAT.polit.,NÍZKÉ daně,VYROVN.rozp.,MIN.byrokr.,SPRAV.just.,PŘÍMOU demokr. WWW.CIBULKA.NET",Volte Pravý Blok www.cibulka.net,Volte Pr.Blok www.cibulka.net,PB,1,098,Volte Pravý Blok www.cibulka.net
99,Bez politické příslušnosti,Bez politické příslušnosti,Bez politické příslušnosti,BEZPP,1,099,bez politické příslušnosti
100,Humanistická strana,Humanistická strana,Humanistická strana,HS,1,100,HS
101,Strana venkova - spojené občanské síly,Strana venkova - spojené občanské síly,Str.venkova-spoj.občan.síly,SV SOS,1,101,SV SOS
102,Unie svobody - Demokratická unie,Unie svobody - Demokratická unie,Unie svobody-Demokratická unie,US-DEU,1,102,US-DEU
103,Strana pro otevřenou společnost,Strana pro otevřenou společnost,Str.pro otevřenou společnost,SOS,1,103,SOS
104,Občanská koalice - Politický klub,Občanská koalice - Politický klub,Občanská koalice-Polit.klub,OK,1,104,
105,Strana konzervativní smlouvy,Strana konzervativní smlouvy,Strana konzervativní smlouvy,SKS,1,105,
106,Alternativa 2000,Alternativa 2000,Alternativa 2000,A2000,1,106,
107,Demokratická liga,Demokratická liga,Demokratická liga,DL,1,107,
108,Hnutí za prosperitu Brna,Hnutí za prosperitu Brna,Hnutí za prosperitu Brna,HPB,1,108,
109,Zlínské hnutí nezávislých,Zlínské hnutí nezávislých,Zlínské hnutí nezávislých,ZHN,1,109,ZHN
110,Demokratická regionální strana,Demokratická regionální strana,Demokratická regionální strana,DRS,1,110,DRS
111,Pravá volba pro Plzeň,Pravá volba pro Plzeň,Pravá volba pro Plzeň,PVP,1,111,PVP
112,HNUTÍ NEZÁVISLÝCH ZA HARMONICKÝ ROZVOJ OBCÍ A MĚST,HNUTÍ NEZÁVISLÝCH ZA HARMONICKÝ ROZVOJ OBCÍ A MĚST,HN.ZA HARM.ROZVOJ OBCÍ A MĚST,HNHRM,1,112,HNHRM
113,Volba pro město,Volba pro město,Volba pro město,VPM,1,113,VPM
114,Hnutí pro Havířov,Hnutí pro Havířov,Hnutí pro Havířov,HPH,1,114,HPH
115,Nezávislé sdružení občanů Blanska,Nezávislé sdružení občanů Blanska,Nezáv.sdruž.občanů Blanska,NSOB,1,115,NSOB
116,Občanská liga FORUM,Občanská liga FORUM,Občanská liga FORUM,OLF,1,116,
117,"""1.Sdružení nezávislých kandidátů Tábor""","""1.Sdružení nezávislých kandidátů Tábor""","""1.Sdr.nezáv.kandidátů Tábor""",1.SNK,1,117,
118,Sdružení pro sport a zdraví,Sdružení pro sport a zdraví,Sdružení pro sport a zdraví,SSZ,1,118,
119,Unie pro sport a zdraví,Unie pro sport a zdraví,Unie pro sport a zdraví,USZ,1,119,USZ
120,Aliance nezávislých občanů,Aliance nezávislých občanů,Aliance nezávislých občanů,ANO,1,120,
121,NÁRODNÍ PROSPERITA,NÁRODNÍ PROSPERITA,NÁRODNÍ PROSPERITA,NP,1,121,NP
122,Českobudějovická nezávislá nová volba,Českobudějovická nezávislá nová volba,Českobudějov.nezáv.nová volba,ČbNNV,1,122,
123,České hnutí za národní jednotu,České hnutí za národní jednotu,České hnutí za národní jednotu,ČHNJ,1,123,ČHNJ
124,Nové hnutí,Nové hnutí,Nové hnutí,NH,1,124,
125,Unie pro Evropu,Unie pro Evropu,Unie pro Evropu,UPE,1,125,
126,Nestraníci pro Moravu,Nestraníci pro Moravu,Nestraníci pro Moravu,NPM,1,126,
127,Republikáni Miroslava Sládka,Republikáni Miroslava Sládka,Republikáni Miroslava Sládka,RMS,1,127,
128,"""Akce za skutečnou demokracii""","""Akce za skutečnou demokracii""","""Akce za skutečnou demokracii""",AZSD,1,128,
129,SNK Evropští demokraté,SNK Evropští demokraté,SNK Evropští demokraté,SNK ED,1,129,SNK ED
130,Strana svobodných severu,Strana svobodných severu,Strana svobodných severu,SSS,1,130,
131,Strana občanského porozumění,Strana občanského porozumění,Strana občanského porozumění,SOP,1,131,
132,Aktiv nezávislých občanů,Aktiv nezávislých občanů,Aktiv nezávislých občanů,ANEO,1,132,ANEO
133,Cesta změny,Cesta změny,Cesta změny,CZ,1,133,
134,"""Sebeobrana voličů-Váš hlas nepodpoří financování planých řečí, ale zdravotnictví Vašeho obvodu""","""Sebeobrana voličů-Váš hlas pro zdravotnictví""","""Sebeobrana voličů-Váš hlas""",SeVo,1,134,
135,Naděje,Naděje,Naděje,N,1,135,
136,Tábor 2020,Tábor 2020,Tábor 2020,T2020,1,136,T2020
137,Suverenita - Strana zdravého rozumu,Suverenita-Strana zdravého rozumu,Suver.-Strana zdravého rozumu,Suveren.,1,137,Suverenita
138,Liberálové.CZ,Liberálové.CZ,Liberálové.CZ,LIB,1,138,LIB
139,Volba pro budoucnost,Volba pro budoucnost,Volba pro budoucnost,VPB,1,139,
140,Balbínova poetická strana,Balbínova poetická strana,Balbínova poetická strana,BPS,1,140,BPS
141,Národní sjednocení,Národní sjednocení,Národní sjednocení,NSJ,1,141,NSJ
142,Strana Zdraví Sportu Prosperity,Strana Zdraví Sportu Prosperity,Str.Zdraví Sportu Prosperity,SZSP,1,142,SZSP
143,Spojení demokraté - Sdružení nezávislých,Spojení demokraté - Sdružení nezávislých,Spojení demokraté-Sdruž.nezáv.,SD-SN,1,143,SD-SN
144,Věci veřejné,Věci veřejné,Věci veřejné,VV,1,144,VV
145,"""Jirkov 21.století""","""Jirkov 21.století""","""Jirkov 21.století""",J 21 S,1,145,J 21 S
146,Nezávislí pro Prahu,Nezávislí pro Prahu,Nezávislí pro Prahu,NPP,1,146,NPP
147,MĚSTO LIDEM,MĚSTO LIDEM,MĚSTO LIDEM,ML,1,147,ML
148,"""SONOB - sdružení ochrany nájemníků a ostatního bydlení""","""SONOB-sdružení ochrany nájemníků a ostat.bydlení""","""SONOB-sdruž.ochr.nájemníků""",SONOB,1,148,SONOB
149,Sociálně demokratická aliance nezávislých,Sociálně demokratická aliance nezávislých,Sociálně demokrat.aliance nez.,SDAN,1,149,
150,Sdružení za lepší Vrchlabí,Sdružení za lepší Vrchlabí,Sdružení za lepší Vrchlabí,SZLV,1,150,
151,Helax-Ostrava se baví,Helax-Ostrava se baví,Helax-Ostrava se baví,HOB,1,151,
152,Národní strana,Národní strana,Národní strana,NS,1,152,NS
153,Dělnická strana,Dělnická strana,Dělnická strana,DS,1,153,DS
154,Všeobecná občanská strana,Všeobecná občanská strana,Všeobecná občanská strana,VOS,1,154,VOS
155,SUVERENITA - STRANA DŮSTOJNÉHO ŽIVOTA,SUVERENITA - STRANA DŮSTOJNÉHO ŽIVOTA,SUVEREN.-STR.DŮSTOJNÉHO ŽIVOTA,SDŽ,1,155,SDŽ
156,Dělnická strana sociální spravedlnosti,Dělnická strana sociální spravedlnosti,Dělnic.str.sociální spravedl.,DSSS,1,156,DSSS
157,Demokratická Unie České republiky,Demokratická Unie České republiky,Demokratická Unie České rep.,DEUČR,1,157,
158,"""Sdružení nestraníků""","""Sdružení nestraníků""","""Sdružení nestraníků""",SN,1,158,SN
159,Strana práce,Strana práce,Strana práce,SP,1,159,SP
160,"""Viktor Kožený - Občanská federální demokracie""","""Viktor Kožený - Občanská federální demokracie""","""V.Kožený-Občan.feder.demokr.""","""OFD""",1,160,"""OFD"""
161,Svobodná občanská samospráva,Svobodná občanská samospráva,Svobodná občanská samospráva,SvOS,1,161,SvOS
162,Správný směr,Správný směr,Správný směr,SPS,1,162,
163,NEZÁVISLÁ VOLBA,NEZÁVISLÁ VOLBA,NEZÁVISLÁ VOLBA,NV,1,163,NV
164,Evropská strana důstojného stáří,Evropská strana důstojného stáří,Evropská str.důstojného stáří,ESDS,1,164,ESDS
165,Strana drobných živnostníků a podnikatelů,Strana drobných živnostníků a podnikatelů,Str.drobn.živnost.a podnikat.,SDŽP,1,165,
166,STAROSTOVÉ A NEZÁVISLÍ,STAROSTOVÉ A NEZÁVISLÍ,STAROSTOVÉ A NEZÁVISLÍ,STAN,1,166,STAN
167,Hnutí na podporu dobrovolných hasičů a dalších dobrovolníků,Hnutí na podporu dobrov.hasičů a dal.dobrovolníků,Hn.na podporu dobrovol.hasičů,HNPD,1,167,HNPD
168,Občanské demokratické hnutí,Občanské demokratické hnutí,Občanské demokratické hnutí,ODH,1,168,
169,Folklor i Společnost,Folklor i Společnost,Folklor i Společnost,FiS,1,169,FiS
170,Romská demokratická sociální strana,Romská demokratická sociální strana,Romská demokrat.sociální str.,RDSS,1,170,
171,STRANA ROVNOST ŠANCÍ,STRANA ROVNOST ŠANCÍ,STRANA ROVNOST ŠANCÍ,SRŠ,1,171,
172,NEZÁVISLÍ DEMOKRATÉ,NEZÁVISLÍ DEMOKRATÉ,NEZÁVISLÍ DEMOKRATÉ,NEZ/DEM,1,172,NEZ/DEM
173,Chci svou šanci,Chci svou šanci,Chci svou šanci,CISN,1,173,
174,Hnutí pro Těšín,Hnutí pro Těšín,Hnutí pro Těšín,HpT,1,174,HpT
175,Česká strana národně socialistická,Česká strana národně socialistická,Česká str.národ.socialistická,ČSNS2005,1,175,ČSNS2005
176,Strana občanské sebeobrany,Strana občanské sebeobrany,Strana občanské sebeobrany,SOSPRAHA,1,176,S.O.S. PRAHA
177,Zelení,Zelení,Zelení,"""Z""",1,177,"""Z"""
178,4 VIZE - www.4vize.cz,4 VIZE - www.4vize.cz,4 vize - www.4vize.cz,4 VIZE,1,178,4 VIZE
179,"Sedma - strana pro Slatiňany, Škrovád, Trpišov, Kunčí, Presy, Podhůru a Kochánovice",Sedma-strana pro obec Slatiňany a její osady,Sedma-str.pro obec Slatiňany,Sedma,1,179,Sedma
180,Klub sociálně demokratické orientace,Klub sociálně demokratické orientace,Klub sociál.demokrat.orientace,KSDO,1,180,
181,Nestraníci,Nestraníci,Nestraníci,Nestran.,1,181,NK
182,Karlovarská občanská alternativa,Karlovarská občanská alternativa,Karlovar.občanská alternativa,KOA,1,182,KOA
183,Alternativa pro občany,Alternativa pro občany,Alternativa pro občany,AO,1,183,AO
184,Hnutí LEPŠÍ ŘEPY,Hnutí LEPŠÍ ŘEPY,Hnutí LEPŠÍ ŘEPY,HLŘ,1,184,HLŘ
185,Patrioti - hnutí za lepší Ústí n.L.,Patrioti - Hnutí za lepší Ústí n.L.,Patrioti-Hn.za lepší Ústí n.L.,P-HLÚ,1,185,
186,Hnutí za lepší bydlení,Hnutí za lepší bydlení,Hnutí za lepší bydlení,HZLB,1,186,
187,Občansko demokratické sdružení Zlín,Občansko demokratické sdružení Zlín,Občansko demokr.sdružení Zlín,ODSZ,1,187,
188,SEMILÁCI,SEMILÁCI,SEMILÁCI,PSS,1,188,PSS
189,Zlínské sdružení živnostníků a podnikatelů,Zlínské sdružení živnostníků a podnikatelů,Zlín.sdruž.živnost.a podnikat.,ZSŽP,1,189,
190,Mimoňská obroda,Mimoňská obroda,Mimoňská obroda,OHMO,1,190,OHMO
191,MĚSTO I MLÁDEŽI,MĚSTO I MLÁDEŽI,MĚSTO I MLÁDEŽI,MIM,1,191,
192,SUVERENITA - POLITIKA 21,SUVERENITA - POLITIKA 21,SUVERENITA - POLITIKA 21,"""21""",1,192,"""21"""
193,Volba pro Mladou Boleslav,Volba pro Mladou Boleslav,Volba pro Mladou Boleslav,VpMB,1,193,VpMB
194,ZVON,ZVON,ZVON,PHZ,1,194,PHZ
195,Hnutí pro Prahu 11,Hnutí pro Prahu 11,Hnutí pro Prahu 11,HPP 11,1,195,HpP
196,Strana Svobody,Strana Svobody,Strana Svobody,Str.Svob,1,196,
197,NESPOKOJENÍ OBČANÉ!,NESPOKOJENÍ OBČANÉ!,NESPOKOJENÍ OBČANÉ!,NO!,1,197,NO!
198,"Republikánská strana Čech, Moravy a Slezska","Republikánská strana Čech, Moravy a Slezska","Republ.str.Čech,Moravy a Slez.",RSČMS,1,198,RSČMS
199,Klíčové hnutí,Klíčové hnutí,Klíčové hnutí,KH,1,199,KH
200,Demokracie,Demokracie,Demokracie,DK,1,200,DK
201,"Koalice KDU-ČSL, ČSNS","Koalice KDU-ČSL, ČSNS","Koalice KDU-ČSL, ČSNS",,2,"001,002",
202,"Koalice KDU-ČSL, ČSNS, US","Koalice KDU-ČSL, ČSNS, US","Koalice KDU-ČSL, ČSNS, US",,3,"001,002,102",
203,"Koalice KDU-ČSL, SZ, DEU","Koalice KDU-ČSL, SZ, DEU","Koalice KDU-ČSL, SZ, DEU",,3,"001,005,081",
204,"Koalice KDU-ČSL, SZ, NEZ","Koalice KDU-ČSL, SZ, NEZ","Koalice KDU-ČSL, SZ, NEZ",,3,"001,005,088",
205,"Koalice KDU-ČSL, ODA","Koalice KDU-ČSL, ODA","Koalice KDU-ČSL, ODA",,2,"001,013",
206,"Koalice KDU-ČSL, ODA, ODS, US","Koalice KDU-ČSL, ODA, ODS, US","Koalice KDU-ČSL, ODA, ODS, US",,4,"001,013,053,102",
207,"Koalice KDU-ČSL, ODA, DEU","Koalice KDU-ČSL, ODA, DEU","Koalice KDU-ČSL, ODA, DEU",,3,"001,013,081",
208,Čtyřkoalice,Čtyřkoalice,Čtyřkoalice,4KOALICE,4,"001,013,081,102",
209,"Koalice KDU-ČSL, KSČM","Koalice KDU-ČSL, KSČM","Koalice KDU-ČSL, KSČM",,2,"001,047",
210,"Koalice KDU-ČSL, ODS","Koalice KDU-ČSL, ODS","Koalice KDU-ČSL, ODS",,2,"001,053",
211,"Koalice KDU-ČSL, ODS, US","Koalice KDU-ČSL, ODS, US","Koalice KDU-ČSL, ODS, US",,3,"001,053,102",
212,"Koalice KDU-ČSL, DEU","Koalice KDU-ČSL, DEU","Koalice KDU-ČSL, DEU",,2,"001,081",
213,"Koalice KDU-ČSL, DEU, US","Koalice KDU-ČSL, DEU, US","Koalice KDU-ČSL, DEU, US",,3,"001,081,102",
214,"Koalice KDU-ČSL, HSMSMNSJ","Koalice KDU-ČSL, HSMSMNSJ","Koalice KDU-ČSL, HSMSMNSJ",,2,"001,083",
215,"Koalice KDU-ČSL, NEZ","Koalice KDU-ČSL, NEZ","Koalice KDU-ČSL, NEZ",,2,"001,088",
216,"Koalice KDU-ČSL, US","Koalice KDU-ČSL, US","Koalice KDU-ČSL, US",,2,"001,102",
217,"Koalice KDU-ČSL, SOS","Koalice KDU-ČSL, SOS","Koalice KDU-ČSL, SOS",,2,"001,103",
218,"Koalice KDU-ČSL, SKS","Koalice KDU-ČSL, SKS","Koalice KDU-ČSL, SKS",,2,"001,105",
219,"Koalice ČSNS, SZ, KAN, NEZ","Koalice ČSNS, SZ, KAN, NEZ","Koalice ČSNS, SZ, KAN, NEZ",,4,"002,005,040,088",
220,"Koalice ČSNS, SZ, DEU","Koalice ČSNS, SZ, DEU","Koalice ČSNS, SZ, DEU",,3,"002,005,081",
221,"Koalice ČSNS, ČSSD","Koalice ČSNS, ČSSD","Koalice ČSNS, ČSSD",,2,"002,007",
222,"Koalice ČSNS, ODA","Koalice ČSNS, ODA","Koalice ČSNS, ODA",,2,"002,013",
223,"Koalice ČSNS, SŽJ","Koalice ČSNS, SŽJ","Koalice ČSNS, SŽJ",,2,"002,020",
224,"Koalice ČSNS, ODS","Koalice ČSNS, ODS","Koalice ČSNS, ODS",,2,"002,053",
225,"Koalice ČSNS, DEU","Koalice ČSNS, DEU","Koalice ČSNS, DEU",,2,"002,081",
226,"Koalice ČSNS, US","Koalice ČSNS, US","Koalice ČSNS, US",,2,"002,102",
227,"Koalice SZ, ČSSD","Koalice SZ, ČSSD","Koalice SZ, ČSSD",,2,"005,007",
228,"Koalice SZ, ODA","Koalice SZ, ODA","Koalice SZ, ODA",,2,"005,013",
229,"Koalice SZ, KAN, NEZ","Koalice SZ, KAN, NEZ","Koalice SZ, KAN, NEZ",,3,"005,040,088",
230,"Koalice ČSSD, SŽJ","Koalice ČSSD, SŽJ","Koalice ČSSD, SŽJ",,2,"007,020",
231,"Koalice ČSSD, KSČM","Koalice ČSSD, KSČM","Koalice ČSSD, KSČM",,2,"007,047",
232,"Koalice ČSSD, ODS","Koalice ČSSD, ODS","Koalice ČSSD, ODS",,2,"007,053",
233,"Koalice ČSSD, SDS","Koalice ČSSD, SDS","Koalice ČSSD, SDS",,2,"007,074",
234,"Koalice ČSSD, HSMSMNSJ","Koalice ČSSD, HSMSMNSJ","Koalice ČSSD, HSMSMNSJ",,2,"007,083",
235,"Koalice ČSSD, SV","Koalice ČSSD, SV","Koalice ČSSD, SV",,2,"007,101",
236,"Koalice SPR-RSČ, SDČR","Koalice SPR-RSČ, SDČR","Koalice SPR-RSČ, SDČR",,2,"011,079",
237,"Koalice SPR-RSČ, SDČR, MoDS","Koalice SPR-RSČ, SDČR, MODS","Koalice SPR-RSČ, SDČR, MODS",,3,"011,079,082",
238,"Koalice ODA, KAN, DEU","Koalice ODA, KAN, DEU","Koalice ODA, KAN, DEU",,3,"013,040,081",
239,"Koalice ODA, KAN, DEU, US","Koalice ODA, KAN, DEU, US","Koalice ODA, KAN, DEU, US",,4,"013,040,081,102",
240,"Koalice ODA, ODS","Koalice ODA, ODS","Koalice ODA, ODS",,2,"013,053",
241,"Koalice ODA, ODS, DEU","Koalice ODA, ODS, DEU","Koalice ODA, ODS, DEU",,3,"013,053,081",
242,"Koalice ODA, DEU","Koalice ODA, DEU","Koalice ODA, DEU",,2,"013,081",
243,"Koalice ODA, NEZ","Koalice ODA, NEZ","Koalice ODA, NEZ",,2,"013,088",
244,"Koalice ODA, US","Koalice ODA, US","Koalice ODA, US",,2,"013,102",
245,"Koalice ODA, SOS","Koalice ODA, SOS","Koalice ODA, SOS",,2,"013,103",
246,"Koalice SŽJ, CAO","Koalice SŽJ, CAO","Koalice SŽJ, CAO",,2,"020,025",
247,"Koalice SŽJ, SDS","Koalice SŽJ, SDS","Koalice SŽJ, SDS",,2,"020,074",
248,"Koalice KAN, DEU","Koalice KAN, DEU","Koalice KAN, DEU",,2,"040,081",
249,"Koalice KAN, DEU, US","Koalice KAN, DEU, US","Koalice KAN, DEU, US",,3,"040,081,102",
250,"Koalice PA, PB, SKS","Koalice PA, PB, SKS","Koalice PA, PB, SKS",,3,"043,098,105",
251,"Koalice KSČM, SDS","Koalice KSČM, SDS","Koalice KSČM, SDS",,2,"047,074",
252,"Koalice ODS, DEU","Koalice ODS, DEU","Koalice ODS, DEU",,2,"053,081",
253,"Koalice ODS, US","Koalice ODS, US","Koalice ODS, US",,2,"053,102",
254,"Koalice DEU, MoDS","Koalice DEU, MoDS","Koalice DEU, MoDS",,2,"081,082",
255,"Koalice DEU, US","Koalice DEU, US","Koalice DEU, US",,2,"081,102",
256,MORAVSKÁ KOALICE,MORAVSKÁ KOALICE,MORAVSKÁ KOALICE,MORKOAL,2,"082,083",
257,"Koalice NEZ, US","Koalice NEZ, US","Koalice NEZ, US",,2,"088,102",
258,REPUBLIKÁNI MIROSLAVA SLÁDKA,REPUBLIKÁNI MIROSLAVA SLÁDKA,REPUBLIKÁNI MIROSLAVA SLÁDKA,REPUB-MS,3,"011,079,127",
259,Koalice České strany národně sociální a politického hnutí NEZÁVISLÍ,Koal.České str.národ.sociální a pol.hn.NEZÁVISLÍ,K.Čes.str.nár.soc. a NEZÁVISLÍ,ČSNS-NEZ,2,"002,088",
260,Strana za životní jistoty a Strana zelených,Strana za životní jistoty a Strana zelených,"Str.za živ.jist.,Str.zelených",SŽJ-SZ,2,"005,020",
261,Koalice Pravý blok - Klub angažovaných nestraníků,Koalice Pravý blok - Klub angažovaných nestraníků,K.Pravý blok-Klub angaž.nestr.,PB-KAN,2,"040,098",
262,PROSPERITA VYSOČINY,PROSPERITA VYSOČINY,PROSPERITA VYSOČINY,PROSPER,2,"082,083",
263,KOALICE NEPARLAMENTNÍCH STRAN,KOALICE NEPARLAMENTNÍCH STRAN,KOALICE NEPARLAMENTNÍCH STRAN,NEPARLAM,2,"005,020",
265,Sdružení pro Pardubický kraj,Sdružení pro Pardubický kraj,Sdružení pro Pardubický kraj,SDRUŽ.PK,2,"005,103",
266,Náš kraj 21,Náš kraj 21,Náš kraj 21,KRAJ21,2,"005,103",
267,ŠANCE PRO OLOMOUCKÝ KRAJ,ŠANCE PRO OLOMOUCKÝ KRAJ,ŠANCE PRO OLOMOUCKÝ KRAJ,ŠANCEOK,3,"040,105,113",
268,Koalice politických stran Volba pro město a Strana pro otevřenou společnost,Koal.pol.str.Volba pro město a Str.pro otevř.spol.,"Volba pro město,Str.pro ot.sp.",VPM-OS,2,"103,113",
269,Koalice Unie pro Evropu a Strany zelených,Koalice Unie pro Evropu a Strany zelených,"Unie pro Evropu,Str.zelených",UPE-SZ,2,"005,125",
270,"Koalice KDU-ČSL, US-DEU","Koalice KDU-ČSL, US-DEU","Koalice KDU-ČSL, US-DEU",,2,"001,102",
272,Moravskoslezská koalice,Moravskoslezská koalice,Moravskoslezská koalice,MSLKOAL,2,"082,083",
273,Pražané Praze - Praha Pražanům,Pražané Praze - Praha Pražanům,Pražané Praze-Praha Pražanům,,2,"128,134",
274,"Koalice ED, ODA","Koalice ED, ODA","Koalice ED, ODA","ED,ODA",2,"013,143",
275,"Koalice KDU-ČSL, US-DEU, VPM","Koalice KDU-ČSL, US-DEU, VPM","Koalice KDU-ČSL, US-DEU, VPM",,3,"001,102,113",
276,"Koalice SŽJ, VPM","Koalice SŽJ, VPM","Koalice SŽJ, VPM",,2,"020,113",
277,"Koalice MoDS, HSMS, SŽJ","Koalice MoDS, HSMS, SŽJ","Koalice MoDS, HSMS, SŽJ",,3,"020,082,083",
278,"Koalice SNK, VPM","Koalice SNK, VPM","Koalice SNK, VPM",,2,"113,129",
279,"Koalice KDU-ČSL, ČSSD","Koalice KDU-ČSL, ČSSD","Koalice KDU-ČSL, ČSSD",,2,"001,007",
280,"Koalice KDU-ČSL, SNK","Koalice KDU-ČSL, SNK","Koalice KDU-ČSL, SNK",KDUČSLED,2,"001,129",
281,"Koalice KDU-ČSL, ODA, US-DEU","Koalice KDU-ČSL, ODA, US-DEU","Koalice KDU-ČSL, ODA, US-DEU",,3,"001,013,102",
282,"Koalice US-DEU, SNK","Koalice US-DEU, SNK","Koalice US-DEU, SNK",,2,"102,129",
283,"Koalice ČSNS, SOS, VPM","Koalice ČSNS, SOS, VPM","Koalice ČSNS, SOS, VPM",,3,"002,103,113",
285,"Koalice SZ, SNK","Koalice SZ, SNK","Koalice SZ, SNK",,2,"005,129",
286,"Koalice ČSSD, US-DEU","Koalice ČSSD, US-DEU","Koalice ČSSD, US-DEU",,2,"007,102",
287,"Koalice RMS, SŽJ","Koalice RMS, SŽJ","Koalice RMS, SŽJ",,2,"020,127",
288,"Koalice SNK, N","Koalice SNK, N","Koalice SNK, N",,2,"129,135",
289,"Koalice US-DEU, ČSNS","Koalice US-DEU, ČSNS","Koalice US-DEU, ČSNS",,2,"002,102",
290,"Koalice ODA, CZ","Koalice ODA, CZ","Koalice ODA, CZ",,2,"013,133",
291,"Koalice RMS, SDČR, SPR-RSČ","Koalice RMS, SDČR, SPR-RSČ","Koalice RMS, SDČR, SPR-RSČ",,3,"011,079,127",
292,"Koalice SOS, SZ","Koalice SOS, SZ","Koalice SOS, SZ",,2,"005,103",
293,"Koalice PB, SZR","Koalice PB, SZR","Koalice PB, SZR",,2,"098,137",
294,"Koalice ODA, SNK","Koalice ODA, SNK","Koalice ODA, SNK",,2,"013,129",
295,"Koalice SNK, SZ, SOS","Koalice SNK, SZ, SOS","Koalice SNK, SZ, SOS",,3,"005,103,129",
296,"Koalice US-DEU, SZ","Koalice US-DEU, SZ","Koalice US-DEU, SZ",,2,"005,102",
297,"Koalice US-DEU, ODA","Koalice US-DEU, ODA","Koalice US-DEU, ODA",USDEUODA,2,"013,102",
298,"Koalice ČSNS, VPM, KAN","Koalice ČSNS, VPM, KAN","Koalice ČSNS, VPM, KAN",,3,"002,040,113",
299,"Koalice CZ, COEX, NEZ, ODA","Koalice CZ, COEX, NEZ, ODA","Koalice CZ, COEX, NEZ, ODA",,4,"013,072,088,133",
300,"Koalice ČSNS, SV SOS","Koalice ČSNS, SV SOS","Koalice ČSNS, SV SOS",,2,"002,101",
301,"Koalice KSČM, SZ","Koalice KSČM, SZ","Kolaice KSČM, SZ",,2,"005,047",
302,"Koalice ODS, US-DEU","Koalice ODS, US-DEU","Koalice ODS, US-DEU",,2,"053,102",
303,"Koalice KDU-ČSL, SZ","Koalice KDU-ČSL, SZ","Koalice KDU-ČSL, SZ",KDUČSLSZ,2,"001,005",
304,"Koalice US-DEU, ODS, KDU-ČSL","Koalice US-DEU, ODS, KDU-ČSL","Koalice US-DEU, ODS, KDU-ČSL",,3,"001,053,102",
305,"Koalice SZ, ODA, ČSNS, KAN, CZ, N","Koalice SZ, ODA, ČSNS, KAN, CZ, N","Koalice SZ,ODA,ČSNS,KAN,CZ,N",,6,"002,005,013,040,133,135",
306,"Koalice KDU-ČSL, ODS, ČSSD","Koalice KDU-ČSL, ODS, ČSSD","Koalice KDU-ČSL, ODS, ČSSD",,3,"001,007,053",
307,"Koalice ODS, SZ","Koalice ODS, SZ","Koalice ODS, SZ",,2,"005,053",
308,"Váš hlas nebude podporovat plané řeči ve zbytečném Senátu, ale celý plat našich senátorů půjde na zdravotnictví obvodu",Váš hlas...plat našich senátorů půjde na zdravotn.,Váš hlas...plat na zdravotn.,Váš hlas,2,"128,134",
309,"Koalice KDU-ČSL, HSMS","Koalice KDU-ČSL, HSMS","Koalice KDU-ČSL, HSMS",,2,"001,083",
310,Národní koalice,Národní koalice,Národní koalice,NARKOAL,2,"002,152",
311,SNK sdružení nezávislých a Evropští demokraté,SNK sdružení nezávislých a Evropští demokraté,SNK sdruž.nez. a Evropští dem.,SNK-ED,2,"129,143",
312,Za zájmy Moravy ve sjednocené Evropě,Za zájmy Moravy ve sjednocené Evropě,Za zájmy Moravy ve sjedn.Evr.,HSMSMoDS,2,"082,083",
313,Unie liberálních demokratů,Unie liberálních demokratů,Unie liberálních demokratů,ULD,4,"013,102,133,138",
314,Unie Prahy 4,Unie Prahy 4,Unie Prahy 4,Unie-P4,3,"001,102,143",
315,ZELENÁ pro MORAVU,ZELENÁ pro MORAVU,ZELENÁ pro MORAVU,ZEL_MOR,2,"005,138",
316,Sdružení nezávislých kandidátů,Sdružení nezávislých kandidátů,Sdružení nezávislých kandidátů,NPM+SNK,2,"126,129",
317,Koalice pro Středočeský kraj,Koalice pro Středočeský kraj,Koalice pro Středočeský kraj,KOAL_STČ,2,"001,102",
318,Koalice pro Pardubický kraj,Koalice pro Pardubický kraj,Koalice pro Pardubický kraj,KOAL_PAR,2,"001,102",
319,NEZÁVISLÍ KANDIDÁTI+STRANA ZA ŽIVOTNÍ JISTOTY+STRANA VENKOVA+STRANA ZDRAVÉHO ROZUMU=SPOJENÉ OBČANSKÉ SÍLY,NK+ST.ZA Ž.JIST.+ST.VENK.+ST.ZDR.ROZ.=SPOJ.OB.SÍLY,NK+SŽJ+SV+SZR=SPOJ.OBČAN.SÍLY,SP.OBČ.S,3,"020,101,137",
320,Dělnická strana - akce za snížení poslaneckých platů,Dělnická strana-akce za snížení poslaneckých platů,Děl.str.-za snížení posl.platů,DS_PLATY,2,"043,153",
321,ZHN a SNK společně,ZHN a SNK společně,ZHN a SNK společně,ZHN+SNK,2,"109,129",
322,"ED, VPM, SOS - Volba pro kraj","ED, VPM, SOS - Volba pro kraj","ED, VPM, SOS - Volba pro kraj",EDVPMSOS,3,"103,113,143",
323,Strana za životní jistoty - Strana občanů republiky České,Str.za životní jistoty-Str.občanů republiky České,Str.za ž.j.-Str.obč.rep.České,SŽJ+SORČ,2,"020,156",
324,Zelení a otevřená společnost,Zelení a otevřená společnost,Zelení a otevřená společnost,SZ+SOS+T,3,"005,103,136",
325,Koalice jižní Morava,Koalice jižní Morava,Koalice jižní Morava,JIŽ.MOR.,3,"020,083,101",
326,Morava,Morava,Morava,HSMSMoDS,2,"082,083",
327,Koalice Strany zelených a Strany pro otevřenou společnost,Koal. Str.zelených a Str.pro otevřenou společnost,Str.zel.a Str.pro otevř.spol.,SZ+SOS,2,"005,103",
328,Koalice Dělnické a Národní strany,Koalice Dělnické a Národní strany,Koal.Dělnické a Národní strany,DS+NS,2,"152,153",
329,Za prosperitu a jistoty východní Moravy,Za prosperitu a jistoty východní Moravy,Za prosp.a jistoty vých.Moravy,PROSP.VM,3,"020,082,083",
330,Evropští demokraté a Nezávislí starostové pro kraj,Evropští demokraté a Nezávislí starostové pro kraj,Evr.demokr.a Nez.star.pro kraj,ED+NSK,2,"143,166",
331,"Koalice ""Unie pro sport a zdraví - Demokratická regionální strana""","Koal.""Unie pro sport a zdraví-Demokr.region.str.""",Unie pro sp.a zdr.-Dem.reg.st.,USZ+DRS,2,"110,119",
332,"Koalice za zrušení Senátu a za obnovení trestu smrti-Vaším hlasem nepodpoříte platy stran.funkcionářů,ale zdravotn.kraje",Vaším hlasem ... pro zdravotnictví našeho kraje,Váš hlas ... pro zdravotnictví,Váš hlas,2,"128,137",
333,Koalice rozumu a citu za pořádek v naší zemi,Koalice rozumu a citu za pořádek v naší zemi,Koal.rozumu a citu za pořádek,K_ROZCIT,3,"020,101,137",
334,Strana pro otevřenou společnost a Hnutí nezávislých za harmonický rozvoj obcí a měst,Str.pro otevř.spol. a Hn.nez.za harm.rozv.ob.a m.,"Koalice SOS, HNHRM",SOSHNHRM,2,"103,112",
335,Strana zelených a US-DEU,Strana zelených a US-DEU,Strana zelených a US-DEU,"SZ,USDEU",2,"005,102",
336,Koalice pro Karlovarský kraj,Koalice pro Karlovarský kraj,Koalice pro Karlovarský kraj,KOAL_KV,2,"001,005",
337,Vaším hlasem podpoříte financování zdravotnictví našeho kraje a nikoliv plané řeči,Vaším hlasem podpoříte zdravotnictví kraje,Vaším hlasem pro zdravotnictví,Váš hlas,2,"128,134",
338,Koalice pro Českou republiku,Koalice pro Českou republiku,Koalice pro Českou republiku,Koal_ČR,7,"009,040,068,157,159,165,167",
339,"Koalice KDU-ČSL, Nestraníci","Koalice KDU-ČSL, Nestraníci","Koalice KDU-ČSL, Nestraníci",,2,"001,181",
340,"Koalice KDU-ČSL, ""STAN""","Koalice KDU-ČSL, ""STAN""","Koalice KDU-ČSL, ""STAN""",,2,"001,166",
341,"Koalice SZ, SN","Koalice SZ, SN","Koalice SZ, SN",,2,"005,158",
342,Volba pro lidi,Volba pro lidi,Volba pro lidi,Pro lidi,2,"083,102",
343,"Koalice SNK ED, KDU-ČSL","Koalice SNK ED, KDU-ČSL","Koalice SNK ED, KDU-ČSL",KDUČSLED,2,"001,129",
344,"Koalice KDU-ČSL, SNK ED, Nestraníci","Koalice KDU-ČSL, SNK ED, Nestraníci","Koalice KDU-ČSL,SNK ED,Nestran",,3,"001,129,181",
345,"Moravskoslezská koalice ČMUS, HSMSMNSJ a MNS","Moravskoslezská koalice ČMUS, HSMSMNSJ a MNS","Moravskosl.k.ČMUS,HSMSMNSJ,MNS",MSLK_96,3,"032,046,083",
346,"Koalice KDU-ČSL, ODA, Nestraníci","Koalice KDU-ČSL, ODA, Nestraníci","Koalice KDU-ČSL, ODA, Nestran.",,3,"001,013,181",
347,"Koalice SNK ED, SN","Koalice SNK ED, SN","Koalice SNK ED, SN",,2,"129,158",
348,"Koalice SNK ED, COEX","Koalice SNK ED, COEX","Koalice SNK ED, COEX",,2,"072,129",
349,"Koalice KDU-ČSL, VPM","Koalice KDU-ČSL, VPM","Koalice KDU-ČSL, VPM",KDU_VPM,2,"001,113",
350,"Koalice CZ, US-DEU, ODA","Koalice CZ, US-DEU, ODA","Koalice CZ, US-DEU, ODA",,3,"013,102,133",
351,"Sdružení KDU-ČSL, ČSNS, NK","Sdružení KDU-ČSL, ČSNS, NK","Sdružení KDU-ČSL, ČSNS, NK",,3,"001,002,080",
352,"Sdružení KDU-ČSL, KSČM, NK","Sdružení KDU-ČSL, KSČM, NK","Sdružení KDU-ČSL, KSČM, NK",,3,"001,047,080",
353,"Sdružení KDU-ČSL, ODS, NK","Sdružení KDU-ČSL, ODS, NK","Sdružení KDU-ČSL, ODS, NK",,3,"001,053,080",
354,"Sdružení KDU-ČSL, ODS, US, NK","Sdružení KDU-ČSL, ODS, US, NK","Sdružení KDU-ČSL, ODS, US, NK",,4,"001,053,080,102",
355,"Sdružení KDU-ČSL, NK","Sdružení KDU-ČSL, NK","Sdružení KDU-ČSL, NK",,2,"001,080",
356,"Sdružení KDU-ČSL, DEU, NK","Sdružení KDU-ČSL, DEU, NK","Sdružení KDU-ČSL, DEU, NK",,3,"001,080,081",
357,"Sdružení KDU-ČSL, US, NK","Sdružení KDU-ČSL, US, NK","Sdružení KDU-ČSL, US, NK",,3,"001,080,102",
358,"Sdružení KDU-ČSL, SKS, NK","Sdružení KDU-ČSL, SKS, NK","Sdružení KDU-ČSL, SKS, NK",,3,"001,080,105",
359,"Sdružení ČSNS, SZ, KAN, D92, MDS, NEZ, PB, OK, NK","Sdružení ČSNS, SZ, KAN, D92, MDS, NEZ, PB, OK, NK","ČSNS,SZ,KAN,D92,MDS,NEZ,PB,OK,",,9,"002,005,040,065,068,080,088,098,104",
360,"Sdružení ČSNS, ODA, NK","Sdružení ČSNS, ODA, NK","Sdružení ČSNS, ODA, NK",,3,"002,013,080",
361,"Sdružení ČSNS, NK","Sdružení ČSNS, NK","Sdružení ČSNS, NK",,2,"002,080",
362,"Sdružení SZ, SŽJ, NK","Sdružení SZ, SŽJ, NK","Sdružení SZ, SŽJ, NK",,3,"005,020,080",
363,"Sdružení SZ, ODS, NK","Sdružení SZ, ODS, NK","Sdružení SZ, ODS, NK",,3,"005,053,080",
364,"Sdružení SZ, NK","Sdružení SZ, NK","Sdružení SZ, NK",,2,"005,080",
365,"Sdružení SZ, DEU, NK","Sdružení SZ, DEU, NK","Sdružení SZ, DEU, NK",,3,"005,080,081",
366,"Sdružení SZ, MoDS, NK","Sdružení SZ, MoDS, NK","Sdružení SZ, MoDS, NK",,3,"005,080,082",
367,"Sdružení SZ, SOS, NK","Sdružení SZ, SOS, NK","Sdružení SZ, SOS, NK",,3,"005,080,103",
368,"Sdružení ČSSD, SPR-RSČ, HSMSMNSJ, NK","Sdružení ČSSD, SPR-RSČ, HSMSMNSJ, NK","Sdruž.ČSSD,SPR-RSČ,HSMSMNSJ,NK",,4,"007,011,080,083",
369,"Sdružení ČSSD, SŽJ, NK","Sdružení ČSSD, SŽJ, NK","Sdružení ČSSD, SŽJ, NK",,3,"007,020,080",
370,"Sdružení ČSSD, SDS, NK","Sdružení ČSSD, SDS, NK","Sdružení ČSSD, SDS, NK",,3,"007,074,080",
371,"Sdružení ČSSD, NK","Sdružení ČSSD, NK","Sdružení ČSSD, NK",,2,"007,080",
372,"Sdružení SPR-RSČ, NK","Sdružení SPR-RSČ, NK","Sdružení SPR-RSČ, NK",,2,"011,080",
373,"Sdružení ODA, ODS, NK","Sdružení ODA, ODS, NK","Sdružení ODA, ODS, NK",,3,"013,053,080",
374,"Sdružení ODA, NK","Sdružení ODA, NK","Sdružení ODA, NK",,2,"013,080",
375,"Sdružení ODA, DEU, NK","Sdružení ODA, DEU, NK","Sdružení ODA, DEU, NK",,3,"013,080,081",
376,"Sdružení ODA, US, NK","Sdružení ODA, US, NK","Sdružení ODA, US, NK",,3,"013,080,102",
377,"Sdružení ODA, VPM, NK","Sdružení ODA, VPM, NK","Sdružení ODA, VPM, NK",,3,"013,080,113",
378,"Sdružení SŽJ, SDS, NK","Sdružení SŽJ, SDS, NK","Sdružení SŽJ, SDS, NK",,3,"020,074,080",
379,"Sdružení SŽJ, NK","Sdružení SŽJ, NK","Sdružení SŽJ, NK",,2,"020,080",
380,"Sdružení SŽJ, SOS, NK","Sdružení SŽJ, SOS, NK","Sdružení SŽJ, SOS, NK",,3,"020,080,103",
381,"Sdružení CAO, NK","Sdružení CAO, NK","Sdružení CAO, NK",,2,"025,080",
382,"Sdružení KAN, NK","Sdružení KAN, NK","Sdružení KAN, NK",,2,"040,080",
383,"Sdružení KAN, DEU, NK","Sdružení KAN, DEU, NK","Sdružení KAN, DEU, NK",,3,"040,080,081",
384,"Sdružení PA, NK","Sdružení PA, NK","Sdružení PA, NK",,2,"043,080",
385,"Sdružení KSČM, SDS, NK","Sdružení KSČM, SDS, NK","Sdružení KSČM, SDS, NK",,3,"047,074,080",
386,"Sdružení KSČM, SDS, SV, NK","Sdružení KSČM, SDS, SV, NK","Sdružení KSČM, SDS, SV, NK",,4,"047,074,080,101",
387,"Sdružení KSČM, NK","Sdružení KSČM, NK","Sdružení KSČM, NK",,2,"047,080",
388,"Sdružení KSČM, HSMSMNSJ, NK","Sdružení KSČM, HSMSMNSJ, NK","Sdružení KSČM, HSMSMNSJ, NK",,3,"047,080,083",
389,"Sdružení ODS, NK","Sdružení ODS, NK","Sdružení ODS, NK",,2,"053,080",
390,"Sdružení ODS, US, NK","Sdružení ODS, US, NK","Sdružení ODS, US, NK",,3,"053,080,102",
391,"Sdružení MDS, NK","Sdružení MDS, NK","Sdružení MDS, NK",,2,"068,080",
392,"Sdružení COEX, NK","Sdružení COEX, NK","Sdružení COEX, NK",,2,"072,080",
393,"Sdružení SDS, NK","Sdružení SDS, NK","Sdružení SDS, NK",,2,"074,080",
394,"Sdružení ČP, NK","Sdružení ČP, NK","Sdružení ČP, NK",,2,"077,080",
395,"Sdružení SDČR, NK","Sdružení SDČR, NK","Sdružení SDČR, NK",,2,"079,080",
396,"Sdružení DEU, NK","Sdružení DEU, NK","Sdružení DEU, NK",,2,"080,081",
397,"Sdružení DEU, US, NK","Sdružení DEU, US, NK","Sdružení DEU, US, NK",,3,"080,081,102",
398,"Sdružení MoDS, NK","Sdružení MoDS, NK","Sdružení MoDS, NK",,2,"080,082",
399,"Sdružení MoDS, HSMSMNSJ, NK","Sdružení MoDS, HSMSMNSJ, NK","Sdružení MoDS, HSMSMNSJ, NK",,3,"080,082,083",
400,"Sdružení HSMSMNSJ, NK","Sdružení HSMSMNSJ, NK","Sdružení HSMSMNSJ, NK",,2,"080,083",
401,"Sdružení NEZ, NK","Sdružení NEZ, NK","Sdružení NEZ, NK",,2,"080,088",
402,"Sdružení ŽS, NK","Sdružení ŽS, NK","Sdružení ŽS, NK",,2,"080,092",
403,"Sdružení SČK, NK","Sdružení SČK, NK","Sdružení SČK, NK",,2,"080,093",
404,"Sdružení SV SOS, NK","Sdružení SV SOS, NK","Sdružení SV SOS, NK",,2,"080,101",
405,"Sdružení US, NK","Sdružení US, NK","Sdružení US, NK",,2,"080,102",
406,"Sdružení US, VPM, NK","Sdružení US, VPM, NK","Sdružení US, VPM, NK",,3,"080,102,113",
407,"Sdružení SOS, NK","Sdružení SOS, NK","Sdružení SOS, NK",,2,"080,103",
408,"Sdružení OK, NK","Sdružení OK, NK","Sdružení OK, NK",,2,"080,104",
409,"Sdružení SKS, NK","Sdružení SKS, NK","Sdružení SKS, NK",,2,"080,105",
410,"Sdružení DRS, NK","Sdružení DRS, NK","Sdružení DRS, NK",,2,"080,110",
411,"Sdružení VPM, NK","Sdružení VPM, NK","Sdružení VPM, NK",,2,"080,113",
412,"Sdružení SOS, SNK, NK","Sdružení SOS, SNK, NK","Sdružení SOS, SNK, NK",,3,"080,103,129",
413,"Sdružení US-DEU, NK","Sdružení US-DEU, NK","Sdružení US-DEU, NK",,2,"080,102",
414,"Sdružení ODA, US-DEU, NK","Sdružení ODA, US-DEU, NK","Sdružení ODA, US-DEU, NK",,3,"013,080,102",
415,"Sdružení KONS, NK","Sdružení KONS, NK","Sdružení KONS, NK",,2,"024,080",
417,"Sdružení N, NK","Sdružení N, NK","Sdružení N, NK",,2,"080,135",
418,"Sdružení RMS, NK","Sdružení RMS, NK","Sdružení RMS, NK",,2,"080,127",
419,"Sdružení SNK, NK","Sdružení SNK, NK","Sdružení SNK, NK",,2,"080,129",
421,"Sdružení NSJ, NK","Sdružení NSJ, NK","Sdružení NSJ, NK",,2,"080,141",
422,"Sdružení SZ, MoDS, HSMS, SŽJ, NK","Sdružení SZ, MoDS, HSMS, SŽJ, NK","Sdružení SZ,MoDS,HSMS,SŽJ,NK",,5,"005,020,080,082,083",
423,"Sdružení SOS, ČSNS, MDS, NK","Sdružení SOS, ČSNS, MDS, NK","Sdružení SOS, ČSNS, MDS, NK",,4,"002,068,080,103",
424,"Sdružení KDU-ČSL, ČSSD, NK","Sdružení KDU-ČSL, ČSSD, NK","Sdružení KDU-ČSL, ČSSD, NK",,3,"001,007,080",
425,"Sdružení HSMS, VPM, NK","Sdružení HSMS, VPM, NK","Sdružení HSMS, VPM, NK",,3,"080,083,113",
426,"Sdružení DL, NK","Sdružení DL, NK","Sdružení DL, NK",,2,"080,107",
427,"Sdružení SD-SN, NK","Sdružení SD-SN, NK","Sdružení SD-SN, NK",,2,"080,143",
428,"Sdružení CZ, NK","Sdružení CZ, NK","Sdružení CZ, NK",,2,"080,133",
429,"Sdružení ČSSD, US-DEU, NK","Sdružení ČSSD, US-DEU, NK","Sdružení ČSSD, US-DEU, NK",,3,"007,080,102",
430,"Sdružení RMS, SDČR, NK","Sdružení RMS, SDČR, NK","Sdružení RMS, SDČR, NK",,2,"079,080,127",
431,"Sdružení ANEO, NK","Sdružení ANEO, NK","Sdružení ANEO, NK",,2,"080,132",
432,"Sdružení MoDS, HSMS, NK","Sdružení MoDS, HSMS, NK","Sdružení MoDS, HSMS, NK",,3,"080,082,083",
433,"Sdružení US-DEU, ODA, ČSNS, NK","Sdružení US-DEU, ODA, ČSNS, NK","Sdružení US-DEU, ODA, ČSNS, NK",,4,"002,013,080,102",
434,"Sdružení ODA, SZ, NK","Sdružení ODA, SZ, NK","Sdružení ODA, SZ, NK",,3,"005,013,080",
435,"Sdružení US-DEU, KONS, NK","Sdružení US-DEU, KONS, NK","Sdružení US-DEU, KONS, NK",,3,"024,080,102",
436,"Sdružení ED, ODA, CZ, NK","Sdružení ED, ODA, CZ, NK","Sdružení ED, ODA, CZ, NK",,4,"013,080,133,143",
437,"Sdružení KDU-ČSL, ODA, US-DEU, NK","Sdružení KDU-ČSL, ODA, US-DEU, NK","Sdružení KDU-ČSL,ODA,US-DEU,NK",,4,"001,013,080,102",
438,"Sdružení MoDS, SŽJ, NK","Sdružení MoDS, SŽJ, NK","Sdružení MoDS, SŽJ, NK",,3,"020,080,082",
439,"Sdružení US-DEU, ČSNS, NK","Sdružení US-DEU, ČSNS, NK","Sdružení US-DEU, ČSNS, NK",,3,"002,080,102",
440,"Sdružení ED, SZ, NK","Sdružení ED, SZ, NK","Sdružení ED, SZ, NK",,3,"005,080,143",
441,"Sdružení ED, ODA, NK","Sdružení ED, ODA, NK","Sdružení ED, ODA, NK",,3,"013,080,143",
442,"Sdružení SZ, ČSNS, SV SOS, NK","Sdružení SZ, ČSNS, SV SOS, NK","Sdružení SZ, ČSNS, SV SOS, NK",,4,"002,005,080,101",
443,"Sdružení NPM, NK","Sdružení NPM, NK","Sdružení NPM, NK",,2,"080,126",
444,"Sdružení SDS, SV SOS, NK","Sdružení SDS, SV SOS, NK","Sdružení SDS, SV SOS, NK",,3,"074,080,101",
445,"Sdružení SZ, SOS, SNK, NK","Sdružení SZ, SOS, SNK, NK","Sdružení SZ, SOS, SNK, NK",,4,"005,080,103,129",
446,"Sdružení ODS, US-DEU, NK","Sdružení ODS, US-DEU, NK","Sdružení ODS, US-DEU, NK",,3,"053,080,102",
447,"Sdružení HSMS, NK","Sdružení HSMS, NK","Sdružení HSMS, NK",,2,"080,083",
448,"Sdružení H.S., NK","Sdružení H.S., NK","Sdružení H.S., NK",,2,"080,100",
449,"Sdružení SNK ED, NK","Sdružení SNK ED, NK","Sdružení SNK ED, NK",,2,"080,129",
450,"Sdružení ""LiRA"", NK","Sdružení ""LiRA"", NK","Sdružení ""LiRA"", NK",,2,"080,138",
451,"Sdružení SvOS, NK","Sdružení SvOS, NK","Sdružení SvOS, NK",,2,"080,161",
452,"Sdružení SDŽP, NK","Sdružení SDŽP, NK","Sdružení SDŽP, NK",,2,"080,165",
453,"Sdružení ČSNS2005, NK","Sdružení ČSNS2005, NK","Sdružení ČSNS2005, NK",,2,"080,175",
454,"Sdružení NEZ/DEM, NK","Sdružení NEZ/DEM, NK","Sdružení NEZ/DEM, NK",,2,"080,172",
455,"Sdružení SOS, KDU-ČSL, CZ, US-DEU, VPM, SZR, NK","Sdružení SOS, KDU-ČSL, CZ, US-DEU, VPM, SZR, NK","SOS,KDU,CZ,US-DEU,VPM,SZR,NK",,7,"001,080,102,103,113,133,137",
456,"Sdružení HNHRM, NK","Sdružení HNHRM, NK","Sdružení HNHRM, NK",,2,"080,112",
457,"Sdružení Nestraníci, NK","Sdružení Nestraníci, NK","Sdružení Nestraníci, NK",,2,"080,181",
458,"Sdružení SZ, SN, NK","Sdružení SZ, SN, NK","Sdružení SZ, SN, NK",,3,"005,080,158",
459,"Sdružení SZ, US-DEU, NK","Sdružení SZ, US-DEU, NK","Sdružení SZ, US-DEU, NK",,3,"005,080,102",
460,"Sdružení KDU-ČSL, US-DEU, NK","Sdružení KDU-ČSL, US-DEU, NK","Sdružení KDU-ČSL, US-DEU, NK",,3,"001,080,102",
461,"Sdružení NV, NK","Sdružení NV, NK","Sdružení NV, NK",,2,"080,163",
462,"Sdružení SNK ED, SD-SN, SOS, SZ, US-DEU, NK","Sdružení SNK ED, SD-SN, SOS, SZ, US-DEU, NK","SNK ED,SD-SN,SOS,SZ,US-DEU,NK",,6,"005,080,102,103,129,143",
463,"Sdružení SN, NK","Sdružení SN, NK","Sdružení SN, NK",,2,"080,158",
464,"Sdružení M, NK","Sdružení M, NK","Sdružení M, NK",,2,"080,083",
465,"Sdružení DEUČR, NK","Sdružení DEUČR, NK","Sdružení DEUČR, NK",,2,"080,157",
466,"Sdružení SNK ED, SZ, NK","Sdružení SNK ED, SZ, NK","Sdružení SNK ED, SZ, NK",,3,"005,080,129",
467,"Sdružení SZ, NEZ, NK","Sdružení SZ, NEZ, NK","Sdružení SZ, NEZ, NK",,3,"005,080,088",
468,"Sdružení MDS, ČSNS2005, SOS, NK","Sdružení MDS, ČSNS2005, SOS, NK","Sdružení MDS,ČSNS2005,SOS,NK",,4,"068,080,103,175",
469,"Sdružení US-DEU, SNK ED, NK","Sdružení US-DEU, SNK ED, NK","Sdružení US-DEU, SNK ED, NK",,3,"080,102,129",
470,"Sdružení ""STAN"", NK","Sdružení ""STAN"", NK","Sdružení ""STAN"", NK",,2,"080,166",
471,"Sdružení ZHN, NK","Sdružení ZHN, NK","Sdružení ZHN, NK",,2,"080,109",
472,"Sdružení US-DEU, SOS, NK","Sdružení US-DEU, SOS, NK","Sdružení US-DEU, SOS, NK",,3,"080,102,103",
473,"Sdružení KDU-ČSL, ČSSD, US-DEU, NK","Sdružení KDU-ČSL, ČSSD, US-DEU, NK","Sdruž.KDU-ČSL,ČSSD,US-DEU,NK",,4,"001,007,080,102",
474,"Sdružení ČSSD, KSČM, NK","Sdružení ČSSD, KSČM, NK","Sdružení ČSSD, KSČM, NK",,3,"007,047,080",
475,"Sdružení SLK, NK","Sdružení SLK, NK","Sdružení SLK, NK",,2,"080,703",
476,"Sdružení ALTERNATIVA, NK","Sdružení ALTERNATIVA, NK","Sdružení ALTERNATIVA, NK",,2,"080,702",
477,"Sdružení Svobodní, NK","Sdružení Svobodní, NK","Sdružení Svobodní, NK",,2,"080,714",
478,"Sdružení Nový Impuls, NK","Sdružení Nový Impuls, NK","Sdružení Nový Impuls, NK",,2,"080,726",
479,"Sdružení KDU-ČSL, SZ, NK","Sdružení KDU-ČSL, SZ, NK","Sdružení KDU-ČSL, SZ, NK",,3,"001,005,080",
480,"Sdružení TOP 09, NK","Sdružení TOP 09, NK","Sdružení TOP 09, NK",,2,"080,721",
481,"Sdružení Klíčové hnutí, NK","Sdružení Klíčové hnutí, NK","Sdružení KH, NK",,2,"080,199",
482,"Sdružení DSZ, NK","Sdružení DSZ, NK","Sdružení DSZ, NK",,2,"080,715",
483,"Sdružení SPOZ, NK","Sdružení SPOZ, NK","Sdružení SPOZ, NK",,2,"080,724",
484,"Sdružení SZ, VV, NK","Sdružení SZ, VV, NK","Sdružení SZ, VV, NK",,3,"005,080,144",
485,"Sdružení SZ, ALTERNATIVA, Klíčové hnutí, Zelení, NK","Sdruž.SZ, ALTERNATIVA, Klíčové hnutí, Zelení, NK","Sdružení SZ, ALTER, KH, Z, NK",,5,"005,080,177,199,702",
486,"Sdružení KDU-ČSL, SNK ED, NK","Sdružení KDU-ČSL, SNK ED, NK","Sdružení KDU-ČSL, SNK ED, NK",,3,"001,080,129",
487,"Sdružení SZ, US-DEU, ""STAN"", TOP 09, NK","Sdružení SZ, US-DEU, ""STAN"", TOP 09, NK","Sdr.SZ,US-DEU,""STAN"",TOP 09,NK",,5,"005,080,102,166,721",
488,"Sdružení Věci veřejné, NK","Sdružení Věci veřejné, NK","Sdružení VV, NK",,2,"080,144",
489,"Sdružení Strana Práv Občanů ZEMANOVCI, Strana zelených, NK","Sdruž.Str.Práv Občanů ZEMANOVCI, Str.zelených, NK","Sdružení SPOZ, SZ, NK",,3,"005,080,724",
490,"Sdružení ALTER., KČ, SOS, SNK ED, US-DEU, NK","Sdružení ALTER., KČ, SOS, SNK ED, US-DEU, NK","ALTER.,KČ,SOS,SNK ED,US-DEU,NK",,6,"055,080,102,103,129,702",
491,"Sdružení Věci veřejné, SNK Evropští demokraté, NK","Sdružení Věci veřejné, SNK Evropští demokraté, NK","Sdružení VV, SNK ED, NK",,3,"080,129,144",
492,"Sdružení Severočeši.cz, NK","Sdružení Severočeši, NK","Sdružení Severočeši, NK",,2,"080,704",
493,"Sdružení Suverenita, NK","Sdružení Suverenita, NK","Sdružení Suverenita, NK",,2,"080,137",
494,"Sdružení KDU-ČSL, US-DEU, SNK ED, NK","Sdružení KDU-ČSL, US-DEU, SNK ED, NK","Sdruž.KDU-ČSL,US-DEU,SNK ED,NK",,4,"001,080,102,129",
495,"Sdružení TOP 09, ""STAN"", NK","Sdružení TOP 09, ""STAN"", NK","Sdružení TOP 09, ""STAN"", NK",,3,"080,166,721",
496,"Sdružení ""HOPB"", ""STAN"", NK","Sdružení ""HOPB"", ""STAN"", NK","Sdružení ""HOPB"", ""STAN"", NK",,3,"080,166,753",
497,"Sdružení SsČR, NK","Sdružení SsČR, NK","Sdružení SsČR, NK",,2,"080,716",
498,"Sdružení SNK ED, SsČR, TOP 09, NK","Sdružení SNK ED, SsČR, TOP 09, NK","Sdružení SNK ED,SsČR,TOP 09,NK",,4,"080,129,716,721",
499,"Sdružení SLK, KDU-ČSL, NK","Sdružení SLK, KDU-ČSL, NK","Sdružení SLK, KDU-ČSL, NK",,3,"001,080,703",
500,"Sdružení KSČM, FiS, NK","Sdružení KSČM, FiS, NK","Sdružení KSČM, FiS, NK",,3,"047,080,169",
501,"Sdružení TOP 09, SZ, NK","Sdružení TOP 09, SZ, NK","Sdružení TOP 09, SZ, NK",,3,"005,080,721",
502,"Sdružení US-DEU, TOP 09, NK","Sdružení US-DEU, TOP 09, NK","Sdružení US-DEU, TOP 09, NK",,3,"080,102,721",
503,"Sdružení S.cz, ""STAN"", NK","Sdružení S.cz, ""STAN"", NK","Sdružení S.cz, ""STAN"", NK",,3,"080,166,704",
504,"Sdružení FiS, NK","Sdružení FiS, NK","Sdružení FiS, NK",,2,"080,169",
505,"Sdružení KDU-ČSL, Nestran., NK","Sdružení KDU-ČSL, Nestran., NK","Sdružení KDU-ČSL,Nestran.,NK",,3,"001,080,181",
506,"Sdružení PVP, NK","Sdružení PVP, NK","Sdružení PVP, NK",,2,"080,111",
507,"Sdružení VV, VPM, NK","Sdružení VV, VPM, NK","Sdružení VV, VPM, NK",,3,"080,113,144",
577,"Koalice STAN, SLK, TOP 09","Koalice STAN, SLK, TOP 09","Koalice STAN, SLK, TOP 09",STSLKTOP,3,"166,703,721",
578,"Koalice KDU-ČSL, SZ, OCJJ","Koalice KDU-ČSL, SZ, OCJJ","Koalice KDU-ČSL, SZ, OCJJ",KDUSZOCJ,3,"001,005,743",
579,"Koalice SZ, HNHRM, B10","Koalice SZ, HNHRM, B10","Koalice SZ, HNHRM, B10",SZHRMB10,3,"005,112,747",
580,"Koalice Občané, SP, OBČ_2011","Koalice Občané, SP, OBČ_2011","Koalice Občané, SP, OBČ_2011",ObčanéSP,3,"159,718,762",
581,Koalice SNK ED a SZSP,Koalice SNK ED a SZSP,Koalice SNK ED a SZSP,NKEDSZSP,2,"129,142",
582,Koalice SPOZ a Češi,Koalice SPOZ a Češi,Koalice SPOZ a Češi,SPOZČeši,2,"724,777",
583,Koalice MDS a ZH,Koalice MDS a ZH,Koalice MDS a ZH,MDS+ZH,2,"068,752",
584,Koalice SZ a Změna,Koalice SZ a Změna,Koalice SZ a Změna,SZ+Změna,2,"005,771",
585,Koalice KDU-ČSL a SsČR,Koalice KDU-ČSL a SsČR,Koalice KDU-ČSL a SsČR,KDUČSLSs,2,"001,716",
586,Koalice KONS a SBB,Koalice KONS a SBB,Koalice KONS a SBB,KONS+SBB,2,"024,759",
587,Koalice KONS a SsČR,Koalice KONS a SsČR,Koalice KONS a SsČR,KONSSsČR,2,"024,716",
588,Koalice ZHN a Doktoři,Koalice ZHN a Doktoři,Koalice ZHN a Doktoři,ZHN+Dokt,2,"109,701",
589,Koalice SNK ED a SsČR,Koalice SNK ED a SsČR,Koalice SNK ED a SsČR,SNKED+Ss,2,"129,716",
590,Koalice SNK ED a ALTERNATIVA,Koalice SNK ED a ALTERNATIVA,Koalice SNK ED a ALTERNATIVA,SNKED+AL,2,"129,702",
591,"Koalice KDU-ČSL, Nestraníci, SsČR","Koalice KDU-ČSL, Nestraníci, SsČR","Koalice KDU-ČSL,Nestran.,SsČR",KDUNesSs,3,"001,181,716",
592,Koalice SNK ED a ML,Koalice SNK ED a ML,Koalice SNK ED a ML,SNKED+ML,2,"129,147",
593,Koalice SNK ED a Nestraníci,Koalice SNK ED a Nestraníci,Koalice SNK ED a Nestraníci,SNKED+NE,2,"129,181",
594,Koalice KDU-ČSL a NV,Koalice KDU-ČSL a NV,Koalice KDU-ČSL a NV,KDU+NV,2,"001,163",
595,"Koalice KDU-ČSL, SZ, Piráti","Koalice KDU-ČSL, SZ, Piráti","Koalice KDU-ČSL, SZ, Piráti",KDUSZPir,3,"001,005,720",
596,"Koalice STAN a ""HOPB""","Koalice STAN a ""HOPB""","Koalice STAN a ""HOPB""",STANHOPB,2,"166,753",
597,Koalice ČSNS a KAN,Koalice ČSNS a KAN,Koalice ČSNS a KAN,ČSNS+KAN,2,"002,040",
598,Koalice SBB a Suveren.,Koalice SBB a Suveren.,Koalice SBB a Suveren.,SBB+Suv.,2,"137,759",
599,"Koalice KDU-ČSL, SZ, HNHRM","Koalice KDU-ČSL, SZ, HNHRM","Koalice KDU-ČSL, SZ, HNHRM",KDUSZHRM,3,"001,005,112",
600,Koalice DSSS a SPE,Koalice DSSS a SPE,Koalice DSSS a SPE,DSSS+SPE,2,"156,761",
601,"Koalice SONOB, Z","Koalice SONOB, Z","Koalice SONOB, Z",,2,"148,177",
602,"Koalice DS, PaS","Koalice DS, PaS","Koalice DS, PaS",,2,"079,153",
603,"Koalice DRS, KDU-ČSL","Koalice DRS, KDU-ČSL","Koalice DRS, KDU-ČSL",,2,"001,110",
604,Koalice pro Českou republiku,Koalice pro Českou republiku,Koalice pro Českou republiku,Koal_ČR,6,"002,009,040,157,159,178",
605,"Koalice SNK ED, KONS","Koalice SNK ED, KONS","Koalice SNK ED, KONS",,2,"024,129",
606,"Koalice VPM, US-DEU","Koalice VPM, US-DEU","Koalice VPM, US-DEU",,2,"102,113",
607,"Koalice US-DEU, SZ, ODA, KONS, ČSNS2005","Koalice US-DEU, SZ, ODA, KONS, ČSNS2005","K.US-DEU,SZ,ODA,KONS,ČSNS2005",,5,"005,013,024,102,175",
608,"Koalice KDU-ČSL, USZ","Koalice KDU-ČSL, USZ","Koalice KDU-ČSL, USZ",,2,"001,119",
609,Unie Prahy 4,Unie Prahy 4,Unie Prahy 4,Unie_P4,3,"001,102,129",
610,"Koalice DEUČR, ODA, KAN","Koalice DEUČR, ODA, KAN","Koalice DEUČR, ODA, KAN",,3,"013,040,157",
611,"Koalice SZ, NV","Koalice SZ,NV","Koalice SZ, NV",,2,"005,163",
612,"Koalice SNK ED, NEZ","Koalice SNK ED, NEZ","Koalice SNK ED, NEZ",,2,"088,129",
613,"Koalice SZ, US-DEU, SNK ED","Koalice SZ, US-DEU, SNK ED","Koalice SZ, US-DEU, SNK ED",,3,"005,102,129",
614,"Koalice US-DEU, NEZ/DEM","Koalice US-DEU, NEZ/DEM","Koalice US-DEU, NEZ/DEM",,2,"102,172",
615,"Koalice KONS, KČ, SP","Koalice KONS, KČ, SP","Koalice KONS, KČ, SP",,3,"024,055,159",
616,"Koalice Z, ODA, US-DEU","Koalice Z, ODA, US-DEU","Koalice Z, ODA, US-DEU",,3,"013,102,177",
617,"Koalice ODS, SNK ED","Koalice ODS, SNK ED","Koalice ODS, SNK ED",,2,"053,129",
618,"Koalice ODH, SNK ED","Koalice ODH, SNK ED,","Koalice ODH, SNK ED",,2,"129,168",
619,"Koalice SNK ED, US-DEU","Koalice SNK ED, US-DEU","Koalice SNK ED, US-DEU",,2,"102,129",
620,"Koalice SOS, SNK ED, Z","Koalice SOS, SNK ED, Z","Koalice SOS, SNK ED, Z",,3,"103,129,177",
621,"Koalice SOS, ""LiRA""","Koalice SOS, ""LiRA""","Koalice SOS, ""LiRA""",,2,"103,138",
622,"""Celý plat senátora budu dávat na zdravotnictví našeho obvodu""","""Celý plat senátora na zdravotn.našeho obvodu""","""Plat senátora na zdrav.obv.""",Plat_Zdr,2,"128,134",
623,"Koalice NEZ, SZ","Koalice NEZ, SZ","Koalice NEZ, SZ",,2,"005,088",
624,"Koalice ČSSD, ČSNS2005","Koalice ČSSD, ČSNS2005","Koalice ČSSD, ČSNS2005",,2,"007,175",
625,Koalice pro Středočeský kraj,Koalice pro Středočeský kraj,Koalice pro Středočeský kraj,KOALSTČ1,2,"001,129",
626,Národní socialisté a Rozumní,Národní socialisté a Rozumní,Národní socialisté a Rozumní,NS+SZR,2,"137,175",
627,Koalice pro Liberecký kraj,Koalice pro Liberecký kraj,Koalice pro Liberecký kraj,KOALLIB1,2,"001,129",
628,"""DOHODA PRO JIŽNÍ MORAVU""","""DOHODA PRO JIŽNÍ MORAVU""","""DOHODA PRO JIŽNÍ MORAVU""",DOHODAJM,13,"002,009,040,132,159,165,167,172,176,178,701,706,707",
629,Strana zdravého rozumu a Česká strana národně socialistická,Str.zdravého rozumu a Česká str.národně socialist.,Str.zdr.roz.a Čes.str.nár.soc.,SZR+ČSNS,2,"137,175",
630,Koalice pro Karlovarský kraj,Koalice pro Karlovarský kraj,Koalice pro Karlovarský kraj,KOAL_KV1,2,"001,112",
631,"Nejen hasiči a živnostníci pro kraj - www.hnpd.cz, www.sdzp.cz","Nejen has.a živn.pro kraj-www.hnpd.cz,www.sdzp.cz",Nejen hasiči a živn.pro kraj,HAS+ŽIVN,2,"165,167",
632,Dělnická strana - za zrušení poplatků ve zdravotnictví,Dělnická strana-za zrušení poplatků ve zdravotn.,Děln.str.-zrušení popl.ve zdr.,DS_POPL,2,"153,156",
633,Dohoda pro změnu,Dohoda pro změnu,Dohoda pro změnu,PROZMENU,4,"002,055,137,178",
634,Alternativa 2008,Alternativa 2008,Alternativa 2008,Alt_2008,3,"102,103,138",
635,Konzervativní koalice,Konzervativní koalice,Konzervativní koalice,KONZKOAL,4,"021,024,055,079",
636,DOHODA pro Ústecký kraj,DOHODA pro Ústecký kraj,DOHODA pro Ústecký kraj,DOHODA_Ú,2,"102,138",
637,Koalice nestraníků,Koalice nestraníků,Koalice nestraníků,KOALNEST,2,"158,181",
638,Osobnosti kraje,Osobnosti kraje,Osobnosti kraje,OSOBNOST,2,"072,129",
639,Šance pro náš kraj,Šance pro náš kraj,Šance pro náš kraj,ŠANCE_OL,3,"102,103,129",
640,STŘEDOČEŠI,STŘEDOČEŠI,STŘEDOČEŠI,STŘEDOČ.,3,"040,102,103",
641,Koalice US-DEU a SOS,Koalice US-DEU a SOS,Koalice US-DEU a SOS,USDEUSOS,2,"102,103",
642,DOHODA pro Vysočinu,DOHODA pro Vysočinu,DOHODA pro Vysočinu,DOHODAVY,3,"102,132,159",
643,STAROSTOVÉ A NEZÁVISLÍ a Zlínské hnutí nezávislých,STAROSTOVÉ A NEZÁVISLÍ a Zlínské hnutí nezávislých,STAROSTOVÉ A ZHN,STAN+ZHN,2,"109,166",
644,"Koalice US-DEU, SOS a VPM","Koalice US-DEU, SOS a VPM","Koalice US-DEU, SOS a VPM",USSOSVPM,3,"102,103,113",
645,Dělnická strana - NE americkému radaru!,Dělnická strana - NE americkému radaru!,Děln.str.-NE americkému radaru,DS_RADAR,2,"153,156",
646,Koalice pro Plzeňský kraj,Koalice pro Plzeňský kraj,Koalice pro Plzeňský kraj,KOALPLZ1,2,"001,129",
647,Koalice pro Královéhradecký kraj,Koalice pro Královéhradecký kraj,Koalice pro Královéhradec.kraj,KOAL_HK1,2,"001,181",
648,Volba pro kraj,Volba pro kraj,Volba pro kraj,VOLBA_HK,2,"103,113",
649,Koalice US-DEU a KAN,Koalice US-DEU a KAN,Koalice US-DEU a KAN,USDEUKAN,2,"040,102",
650,DOHODA pro senátní obvod Kladno,DOHODA pro senátní obvod Kladno,DOHODA pro senát.obvod Kladno,DOHODA30,2,"040,102",
651,S.O.S. pro kraj,S.O.S. pro kraj,S.O.S. pro kraj,S.O.S.,2,"102,103",
652,Koalice pro Pardubický kraj,Koalice pro Pardubický kraj,Koalice pro Pardubický kraj,KOALPAR1,3,"001,129,181",
653,Nejen hasiči a živnostníci pro kraj,Nejen hasiči a živnostníci pro kraj,Nejen hasiči a živn. pro kraj,HAS+ŽIVN,2,"165,167",
654,Suverenita,Suverenita,Suverenita,Suveren.,2,"137,192",
655,"Nejen hasiči a živnostníci s učiteli do Evropy - www.hnpd.cz, www.sdzp.cz",Nejen hasiči a živnostníci s učiteli do Evropy,Nejen has. a živn. s uč. do E.,HNDPSDZP,2,"165,167",
656,"""STAROSTOVÉ A NEZÁVISLÍ - VAŠE ALTERNATIVA""","""STAROSTOVÉ A NEZÁVISLÍ - VAŠE ALTERNATIVA""","""STAR.A NEZ.-VAŠE ALTERNATIVA""",VAŠEALT.,2,"166,702",
657,Koalice Suveren. a NEZ/DEM,Koalice Suveren. a NEZ/DEM,Koalice Suveren. a NEZ/DEM,,2,"137,172",
658,Koalice SOS A ZELENÍ,Koalice SOS A ZELENÍ,Koalice SOS A Z,,2,"005,103",
659,"Koalice ""STAN"" a TOP 09","Koalice ""STAN"" a TOP 09","Koalice ""STAN"" a TOP 09",TOP+STAN,2,"166,721",
660,Koalice TOP 09 a SLK,Koalice TOP 09 a SLK,Koalice TOP 09 a SLK,,2,"703,721",
661,Koalice SPOZ a SZ,Koalice SPOZ a SZ,Koalice SPOZ a SZ,,2,"005,724",
663,Koalice SNK ED a VV,Koalice SNK ED a VV,Koalice SNK ED a VV,,2,"129,144",
664,Koalice VPM a VV,Koalice VPM a VV,Koalice VPM a VV,,2,"113,144",
665,"Koalice SZ, US-DEU a TOP 09","Koalice SZ, US-DEU a TOP 09","Koalice SZ, US-DEU a TOP 09",,3,"005,102,721",
666,Koalice SDŽ a Pražané za svá práva,Koalice SDŽ a Pražané za svá práva,Koalice SDŽ a PP,,2,"155,744",
667,"Koalice KDU-ČSL, SZ, KONS, KAN, Suveren., ČPS","Koalice KDU-ČSL,SZ,KONS,KAN,Suveren.,ČPS","KDU-ČSL,SZ,KONS,KAN,Suver.,ČPS",,6,"001,005,024,040,137,720",
668,Koalice KDU-ČSL a HNHRM,Koalice KDU-ČSL a HNHRM,Koalice KDU-ČSL a HNHRM,,2,"001,112",
669,"Koalice SZ, Suveren. a SPOZ","Koalice SZ, Suveren. a SPOZ","Koalice SZ,Suveren. a SPOZ",,3,"005,137,724",
670,"Koalice VV, SZ a NV","Koalice VV, SZ a NV","Koalice VV, SZ a NV",,3,"005,144,163",
671,Koalice DSZ a SPOZ,Koalice DSZ a SPOZ,Koalice DSZ a SPOZ,,2,"715,724",
672,"Koalice VPM a ""STAN""","Koalice VPM a ""STAN""","Koalice VPM a ""STAN""",,2,"113,166",
673,"Koalice DRS, TOP 09 a Věci veřejné","Koalice DRS, TOP 09 a Věci veřejné","Koalice DRS, TOP 09 a VV",,3,"110,144,721",
674,Koalice TOP 09 a Věci veřejné,Koalice TOP 09 a Věci veřejné,Koalice TOP 09 a VV,,2,"144,721",
676,"Koalice KDU-ČSL, SZ, NEZ a US-DEU","Koalice KDU-ČSL, SZ, NEZ a US-DEU","Koalice KDU-ČSL,SZ,NEZ,US-DEU",,4,"001,005,088,102",
677,Koalice Moravané a ČSNS2005,Koalice Moravané a ČSNS2005,Koalice M a ČSNS,,2,"083,175",
678,Koalice Senátor pro Ostravu,Koalice Senátor pro Ostravu,Koalice Senátor pro Ostravu,ProOstr.,6,"024,040,068,159,200,706",
679,Koalice Suveren. a SPOZ,Koalice Suveren. a SPOZ,Koalice Suveren. a SPOZ,Suv.SPOZ,2,"137,724",
680,Koalice HpT a SZ,Koalice HpT a SZ,Koalice HpT a SZ,,2,"005,174",
681,Koalice NEZÁVISLÍ a SPOZ,Koalice NEZÁVISLÍ a SPOZ,Koalice NEZÁVISLÍ a SPOZ,,2,"088,724",
682,Koalice ČSSD a SPOZ,Koalice ČSSD a SPOZ,Koalice ČSSD a SPOZ,,2,"007,724",
683,"Koalice KDU-ČSL, Suveren. a ČPS","Koalice KDU-ČSL, Suveren. a ČPS","Koalice KDU-ČSL, Suveren., ČPS",,3,"001,137,720",
684,Koalice Svobodní a ČPS,Koalice Svobodní a ČPS,Koalice Svobodní a ČPS,,2,"714,720",
685,"Koalice KONS, SZ a US-DEU","Koalice KONS, SZ a US-DEU","Koalice KONS, SZ a US-DEU",,3,"005,024,102",
686,Koalice HNHRM a TOP 09,Koalice HNHRM a TOP 09,Koalice HNHRM a TOP 09,,2,"112,721",
687,Koalice TOP 09 a ODS,Koalice TOP 09 a ODS,Koalice TOP 09 a ODS,,2,"053,721",
688,Koalice KDU-ČSL a EDS,Koalice KDU-ČSL a EDS,Koalice KDU-ČSL a EDS,,2,"001,709",
689,Koalice Suveren. a DSZ,Koalice Suveren. a DSZ,Koalice Suveren. a DSZ,,2,"137,715",
690,Koalice KDU-ČSL a Zelení,Koalice KDU-ČSL a Zelení,Koalice KDU-ČSL a Zelení,,2,"001,177",
691,Koalice SNK ED a Suveren.,Koalice SNK ED a Suveren.,Koalice SNK ED a Suveren.,,2,"129,137",
692,"Koalice SONOB, SOSPRAHA a Občané","Koalice SONOB, SOSPRAHA a Občané","Koalice SONOB,SOSPRAHA,Občané",,3,"148,176,718",
693,Koalice Moravané a Suveren.,Koalice Moravané a Suveren.,Koalice Moravané a Suveren.,,2,"083,137",
694,Koalice KDU-ČSL a SN,Koalice KDU-ČSL a SN,Koalice KDU-ČSL a SN,,2,"001,158",
695,Koalice ALTER. a Občané,Koalice ALTER. a Občané,Koalice ALTER. a Občané,ALTER+OB,2,"702,718",
696,Lepší Kladno,Lepší Kladno,Lepší Kladno,OBČ+KAN,2,"040,718",
697,"""STAROSTOVÉ A NEZÁVISLÍ"" s podporou TOP 09","""STAROSTOVÉ A NEZÁVISLÍ"" s podporou TOP 09","""STAN"" s podporou TOP 09",STAN+TOP,2,"166,721",
698,Koalice Česká strana regionů a VÝCHODOČEŠI,Koalice Česká strana regionů a VÝCHODOČEŠI,Koalice Čes.str.reg. a VÝCHOD.,ČSR+VČ,2,"756,770",
699,"Koalice KDU-ČSL, SZ, ČSSD","Koalice KDU-ČSL, SZ, ČSSD","Koalice KDU-ČSL, SZ, ČSSD",ČSSDKDSZ,3,"001,005,007",
700,Koalice SBB a SDŹ,Koalice SBB a SDŽ,Koalice SBB a SDŽ,SBB+SDŽ,2,"155,759",
701,Doktoři (za uzdravení společnosti),Doktoři (za uzdravení společnosti),Doktoři (za uzdravení společ.),Doktoři,1,701,Doktoři
702,ALTERNATIVA,ALTERNATIVA,ALTERNATIVA,ALTER,1,702,ALTERNATIVA
703,Starostové pro Liberecký kraj,Starostové pro Liberecký kraj,Starostové pro Liberecký kraj,SLK,1,703,SLK
704,Severočeši.cz,Severočeši.cz,Severočeši.cz,S.cz,1,704,S.cz
705,Strana podnikatelů a živnostníků,Strana podnikatelů a živnostníků,Str.podnikatelů a živnostníků,"""SPŽ""",1,705,"""SPŽ"""
706,Nezávislí starostové,Nezávislí starostové,Nezávislí starostové,NEST,1,706,NEST
707,"""Evropští demokraté za právo, morálku a spravedlnost""","""Evrop.demokraté za právo, morálku a spravedlnost""","""Evr.dem.za pr.,morál.,sprav.""",ED-MS,1,707,
708,Strana pro ekologii a zdraví,Strana pro ekologii a zdraví,Strana pro ekologii a zdraví,SEZ,1,708,SEZ
709,Evropská demokratická strana,Evropská demokratická strana,Evropská demokratická strana,EDS,1,709,EDS
710,Liga spořádaných lidí,Liga spořádaných lidí,Liga spořádaných lidí,LSL,1,710,LSL
711,Lidé a Politika,Lidé a Politika,Lidé a Politika,LAP,1,711,LAP
712,"""Mírové hnutí 2007""","""Mírové hnutí 2007""","""Mírové hnutí 2007""",MH-2007,1,712,"""MH-2007"""
713,Libertas.cz,Libertas.cz,Libertas.cz,Libertas,1,713,Libertas
714,Strana svobodných občanů,Strana svobodných občanů,Strana svobodných občanů,Svobodní,1,714,Svobodní
715,Demokratická strana zelených,Demokratická strana zelených,Demokratická strana zelených,DSZ,1,715,DSZ
716,Strana soukromníků České republiky,Strana soukromníků České republiky,Strana soukromníků ČR,SsČR,1,716,SsČR
717,ČESKÝ POLITICKÝ STŘED,ČESKÝ POLITICKÝ STŘED,ČESKÝ POLITICKÝ STŘED,ČPST,1,717,ČPST
718,OBČANÉ.CZ,OBČANÉ.CZ,OBČANÉ.CZ,Občané,1,718,Občané
719,Hnutí Za Telefonování Zdarma,Hnutí Za Telefonování Zdarma,Hnutí Za Telefonování Zdarma,HZTZ.CZ,1,719,HZTZ.CZ
720,Česká pirátská strana,Česká pirátská strana,Česká pirátská strana,Piráti,1,720,Piráti
721,TOP 09,TOP 09,TOP 09,TOP 09,1,721,TOP 09
722,Česká realistická strana,Česká realistická strana,Česká realistická strana,ČRS,1,722,ČRS
723,STOP,STOP,STOP,STOP,1,723,STOP
724,Strana Práv Občanů ZEMANOVCI,Strana Práv Občanů ZEMANOVCI,Strana Práv Občanů ZEMANOVCI,SPOZ,1,724,SPOZ
725,Victoria.cz,Victoria.cz,Victoria.cz,Victoria,1,725,Victoria
726,Nový Impuls,Nový Impuls,Nový Impuls,NI,1,726,NI
727,VOLBA PRO KLADNO,VOLBA PRO KLADNO,VOLBA PRO KLADNO,VPK,1,727,VPK
728,Pro Třebíč,Pro Třebíč,Pro Třebíč,ProTR,1,728,ProTR
729,POLITIKA TRADIČNÍCH HODNOT,POLITIKA TRADIČNÍCH HODNOT,POLITIKA TRADIČNÍCH HODNOT,PTH,1,729,PTH
730,Nová budoucnost,Nová budoucnost,Nová budoucnost,NB,1,730,NB
731,Ženy za Brod,Ženy za Brod,Ženy za Brod,ŽB,1,731,ŽB
732,NÁŠ HLUČÍN,NÁŠ HLUČÍN,NÁŠ HLUČÍN,NH,1,732,NH
733,"""Volím Orlovou""","""Volím Orlovou""","""Volím Orlovou""","""VO""",1,733,"""VO"""
734,"""Občané městu, město občanům""","""Občané městu, město občanům""","""Občané městu, město občanům""",OMMO,1,734,OMMO
735,Nezávislí pro Bílinu,Nezávislí pro Bílinu,Nezávislí pro Bílinu,N-BÍLINA,1,735,NEZÁVISLÍ-BÍLINA
736,"REPUBLIKÁNSKÁ STRANA ČECH, MORAVY A SLEZSKA","REPUBLIKÁNSKÁ STRANA ČECH, MORAVY A SLEZSKA","REPUBL.STR.ČECH,MORAVY A SLEZ.",RSČMS,1,736,RSČMS
737,ČESKÁ NEZÁVISLÁ,ČESKÁ NEZÁVISLÁ,ČESKÁ NEZÁVISLÁ,"""ČNEZ""",1,737,"""ČNEZ"""
738,JUNDROV ŽÁDÁ NOVÉ TVÁŘE,JUNDROV ŽÁDÁ NOVÉ TVÁŘE,JUNDROV ŽÁDÁ NOVÉ TVÁŘE,"""Tváře""",1,738,"""Nové tváře"""
739,Královopolští patrioti,Královopolští patrioti,Královopolští patrioti,KPP,1,739,KPP
740,Strana demokratické obnovy,Strana demokratické obnovy,Strana demokratické obnovy,SDeO,1,740,SDeO
741,Hnutí nezávislých za všestranný rozvoj Slatiny,Hnutí nezávislých za všestranný rozvoj Slatiny,Hn.nez.za všestr.rozv.Slatiny,HNVRS,1,741,HNVRS
742,Strakonická Veřejnost,Strakonická Veřejnost,Strakonická Veřejnost,SV,1,742,SV
743,Hnutí O co jim jde?!,Hnutí O co jim jde?!,Hnutí O co jim jde?!,OCJJ,1,743,OCJJ
744,Pražané za svá práva,Pražané za svá práva,Pražané za svá práva,PP,1,744,PP
745,Bílinští sociální demokraté,Bílinští sociální demokraté,Bílinští sociální demokraté,BSD,1,745,BSD
746,OSMA - občané svému městu,OSMA - občané svému městu,OSMA - občané svému městu,OSMA,1,746,OSMA
747,B10,B10,B10,B10,1,747,B10
748,Společnost pro Třinec,Společnost pro Třinec,Společnost pro Třinec,SpT,1,748,SpT
749,Nezávislí občané Prahy,Nezávislí občané Prahy,Nezávislí občané Prahy,NOP,1,749,NOP
750,Desítka pro domácí,Desítka pro domácí,Desítka pro domácí,10PD,1,750,10PD
751,VLASTENECKÁ STRANA,VLASTENECKÁ STRANA,VLASTENECKÁ STRANA,VS,1,751,VS
752,Zdravé Hradiště,Zdravé Hradiště,Zdravé Hradiště,ZH,1,752,ZH
753,"""Občané pro Budějovice""","""Občané pro Budějovice""","""Občané pro Budějovice""","""HOPB""",1,753,"""HOPB"""
754,Občanské hnutí pro Mimoň,Občanské hnutí pro Mimoň,Občanské hnutí pro Mimoň,OHM,1,754,OHM
755,Ostravak,Ostravak,Ostravak,Ostravak,1,755,Ostravak
756,Česká strana regionů,Česká strana regionů,Česká strana regionů,ČSR,1,756,ČSR
757,Sdružení nezávislých Holešovska,Sdružení nezávislých Holešovska,Sdruž.nezávislých Holešovska,SNH,1,757,SNH
758,Naše Beskydy,Naše Beskydy,Naše Beskydy,NBeskydy,1,758,NBeskydy
759,SUVERENITA - Blok Jany Bobošíkové,SUVERENITA - Blok Jany Bobošíkové,SUVERENITA - Blok J.Bobošíkové,SBB,1,759,SBB
760,Lidové fórum,Lidové fórum,Lidové fórum,LF,1,760,LF
761,Strana pro Evropu,Strana pro Evropu,Strana pro Evropu,SPE,1,761,SPE
762,OBČANÉ 2011,OBČANÉ 2011,OBČANÉ 2011,OBČ_2011,1,762,OBČANÉ 2011
763,Strana Globální Odpovědnosti,Strana Globální Odpovědnosti,Strana Globální Odpovědnosti,SGO,1,763,SGO
764,Národní socialisté - levice 21. století,Národní socialisté - levice 21. století,Nár.socialisté-levice 21.stol.,NÁR.SOC.,1,764,NÁR.SOC.
765,"Strana přátel časop.MAXIM a jejich přátel za max.svobodu projevu,za vybudování mocné armády a život bez zbyteč.zákazů",Strana přátel časop.MAXIM za maxim.svobodu projevu,Strana přátel časopisu MAXIM,"""MAXIM""",1,765,"""MAXIM"""
766,"""JIHOČEŠI 2012""","""JIHOČEŠI 2012""","""JIHOČEŠI 2012""","""JIH 12""",1,766,"""JIH 12"""
767,"""Strana rovných příležitostí""","""Strana rovných příležitostí""","""Strana rovných příležitostí""","""SRP""",1,767,"""SRP"""
768,ANO 2011,ANO 2011,ANO 2011,ANO 2011,1,768,ANO 2011
769,LIDEM - liberální demokraté,LIDEM - liberální demokraté,LIDEM - liberální demokraté,LIDEM,1,769,LIDEM
770,VÝCHODOČEŠI,VÝCHODOČEŠI,VÝCHODOČEŠI,VČ,1,770,VČ
771,politické hnutí Změna,politické hnutí Změna,politické hnutí Změna,Změna,1,771,Změna
772,HNUTÍ ODBORNÍKŮ ZA ZLÍNSKÝ KRAJ,HNUTÍ ODBORNÍKŮ ZA ZLÍNSKÝ KRAJ,HNUTÍ ODBORNÍKŮ ZA ZLÍN.KRAJ,HOZK,1,772,HOZK
773,Středočeši2012.cz,Středočeši2012.cz,Středočeši2012.cz,S2012,1,773,S2012
774,"""UNP-STŘEDOČEŠI 2012""","""UNP-STŘEDOČEŠI 2012""","""UNP-STŘEDOČEŠI 2012""",UNP-STŘČ,1,774,"""UNP-STŘEDOČEŠI 2012"""
775,ZVUK 2012,ZVUK 2012,ZVUK 2012,ZVUK2012,1,775,ZVUK 2012
776,PATRIOTI,PATRIOTI,PATRIOTI,PATRIOTI,1,776,PATRIOTI
777,Strana Češi,Strana Češi,Strana Češi,Češi,1,777,Češi
778,za Morální Očistu Regionu,za Morální Očistu Regionu,za Morální Očistu Regionu,M.O.R.,1,778,M.O.R.
779,Starostové pro občany,Starostové pro občany,Starostové pro občany,STO,1,779,STO
780,Nová budoucnost pro Liberecký kraj,Nová budoucnost pro Liberecký kraj,Nová budoucn.pro Liberecký kr.,NBPLK,1,780,NBPLK
781,Volba lidu 21. století,Volba lidu 21. století,Volba lidu 21. století,VL21,1,781,VL21
782,"""Sdružení sportů České republiky""","""Sdružení sportů České republiky""","""Sdružení sportů České repub.""",SSČR.CZ,1,782,SSČR.CZ
783,Česká strana selského rozumu,Česká strana selského rozumu,Česká strana selského rozumu,Čssr,1,783,Čssr
